test_run_dir/ProcessorSpec1048344284/Top.vcd
$date
2021-12-13T19:44+0000
$end
$version
0.2
$end
$comment

$end
$timescale 1ns  $end
$scope module Top $end
 $var wire 1 , io_vSync $end
 $var wire 4 1 io_B $end
 $var wire 11 5 _memAdrs_T $end
 $var wire 10 9 mem_vGACtrl_io_Gin_MPORT_addr_pipe_0 $end
 $var wire 1 J io_hSync $end
 $var wire 12 O mem $end
 $var wire 4 P io_G $end
 $var wire 10 X mem_vGACtrl_io_Bin_MPORT_addr_pipe_0 $end
 $var wire 1 Y clock $end
 $var wire 1 c vGACtrl $end
 $var wire 4 f io_R $end
 $var wire 1 t reset $end
 $var wire 10 x mem_vGACtrl_io_Rin_MPORT_addr_pipe_0 $end
  $scope module vGACtrl.clkDiv $end
  $upscope $end
  $scope module vGACtrl $end
   $var wire 4 # io_B $end
   $var wire 1 0 reset $end
   $var wire 1 ; horCntr $end
   $var wire 1 ? verCntr $end
   $var wire 4 E io_G $end
   $var wire 4 G io_Bin $end
   $var wire 4 R io_Gin $end
   $var wire 1 W clock $end
   $var wire 10 Z io_horCntr $end
   $var wire 10 \ io_verCntr $end
   $var wire 1 j io_vSync $end
   $var wire 1 l _T $end
   $var wire 4 o io_R $end
   $var wire 4 z io_Rin $end
   $var wire 1 { clkDiv $end
   $var wire 1 "! io_hSync $end
    $scope module verCntr $end
     $var wire 10 ! cntReg $end
     $var wire 1 ' reset $end
     $var wire 10 * _cntReg_T_1 $end
     $var wire 1 / outputReg1 $end
     $var wire 1 6 io_enVCnt $end
     $var wire 1 7 _GEN_2 $end
     $var wire 10 < _GEN_5 $end
     $var wire 1 @ io_dispTime $end
     $var wire 1 F io_verSync $end
     $var wire 1 N _GEN_4 $end
     $var wire 1 S _GEN_7 $end
     $var wire 1 U _outputReg2_T $end
     $var wire 1 [ _GEN_1 $end
     $var wire 1 d clock $end
     $var wire 1 e outputReg2 $end
     $var wire 10 h io_verCnt $end
     $var wire 1 i _T $end
     $var wire 1 m _GEN_0 $end
     $var wire 10 r _GEN_3 $end
     $var wire 1 s _GEN_6 $end
     $var wire 1 v _outputReg1_T $end
     $var wire 11 ~ _cntReg_T $end
    $upscope $end
    $scope module clkDiv $end
     $var wire 3 " _cntReg_T_1 $end
     $var wire 1 % reset $end
     $var wire 4 4 _cntReg_T $end
     $var wire 1 A io_tick $end
     $var wire 1 T clock $end
     $var wire 3 V _GEN_0 $end
     $var wire 3 ^ _cntReg_T_2 $end
     $var wire 1 ` _T $end
     $var wire 3 n cntReg $end
    $upscope $end
    $scope module horCntr $end
     $var wire 1 ( _GEN_1 $end
     $var wire 1 ) outputReg1 $end
     $var wire 1 + reset $end
     $var wire 1 - _GEN_4 $end
     $var wire 1 . io_enVCnt $end
     $var wire 1 2 io_dispTime $end
     $var wire 1 8 _outputReg2_T $end
     $var wire 1 = _T $end
     $var wire 10 > _GEN_3 $end
     $var wire 10 B _GEN_6 $end
     $var wire 1 K _GEN_0 $end
     $var wire 1 L _outputReg1_T $end
     $var wire 1 Q io_horSync $end
     $var wire 1 _ _GEN_2 $end
     $var wire 10 a cntReg $end
     $var wire 1 g clock $end
     $var wire 1 k _GEN_8 $end
     $var wire 10 p io_horCnt $end
     $var wire 1 q outputReg2 $end
     $var wire 1 u io_pxlCLK $end
     $var wire 10 y _cntReg_T_1 $end
     $var wire 11 | _cntReg_T $end
     $var wire 1 } _GEN_7 $end
    $upscope $end
  $upscope $end
  $scope module vGACtrl.horCntr $end
  $upscope $end
  $scope module vGACtrl.verCntr $end
  $upscope $end
  $scope module mem $end
    $scope module vGACtrl_io_Bin_MPORT $end
     $var wire 1 $ clk $end
     $var wire 1 I en $end
     $var wire 10 M addr $end
     $var wire 12 b data $end
    $upscope $end
    $scope module vGACtrl_io_Rin_MPORT $end
     $var wire 10 & addr $end
     $var wire 1 3 en $end
     $var wire 12 C data $end
     $var wire 1 w clk $end
    $upscope $end
    $scope module vGACtrl_io_Gin_MPORT $end
     $var wire 10 : addr $end
     $var wire 1 D clk $end
     $var wire 1 H en $end
     $var wire 12 ] data $end
    $upscope $end
  $upscope $end
$upscope $end
$enddefinitions $end
$dumpvars
0;
13
0=
b000000000000 b
b000 ^
0q
0i
0T
b0000000000 Z
b0000 #
07
b0000000000 y
0k
b0000000000 \
0N
b0000000000 *
b0000 f
0m
0e
b0000 4
b0000000000 9
b000000000000 C
b000 "
0g
1H
b0000000000 X
0J
b000 V
b0000000000 &
0-
b0000 E
0L
0D
0/
0c
b0000 G
0[
0F
0)
0@
0+
0t
0_
0W
0"!
0%
b0000 o
0v
0Y
b0000000000 B
0'
b0000000000 a
0S
06
b0000000000 x
0j
b0000000000 p
0U
08
b000000000000 ]
b0000000000 >
0l
b0000 P
b0000000000 r
0d
02
b0000 R
0{
0Q
b0000000000 :
0}
1I
b00000000000 |
0`
0K
b00000000000 5
b0000000000 <
0.
b00000000000 ~
0w
b0000000000 h
b0000 1
b000 n
00
b0000000000 !
0(
b0000 z
b0000000000 M
0?
b000000000000 O
0s
0A
0,
0$
0u
$end
#0
1%
b1111 4
1v
1'
b00000000001 ~
1L
b0000000001 >
10
b0000000001 r
b111 "
1U
b0000000001 y
18
b111 V
b0000000001 *
1+
b111 ^
b00000000001 |
1t
#1
1Q
b0001 4
1g
1J
1}
1S
1K
0L
17
1j
1/
1N
1F
1d
1"!
12
1e
b001 ^
1,
1_
1-
0v
1Y
1D
1w
1(
1[
1q
1)
1T
b001 "
0U
1@
1s
08
1k
b001 V
1l
1W
1$
1m
b010 n
#6
0T
0g
0d
0Y
0D
0w
0$
0W
#11
1T
1g
1d
1Y
1D
1w
1$
1W
#16
0T
0g
0d
0Y
0D
0w
0$
0W
#21
1T
1g
1d
1Y
1D
1w
1$
1W
#26
0T
0g
0d
0Y
0D
0w
0$
0W
#31
1T
1g
1d
1Y
1D
1w
1$
1W
#36
0T
0g
0d
0Y
0D
0w
0$
0W
#41
1T
1g
1d
1Y
1D
1w
1$
1W
#46
00
0T
0%
0g
0d
0Y
0D
0w
0'
0$
0W
0+
0t
#51
1T
b0000 4
1g
1d
b000 "
1Y
b000 V
1D
1w
1$
1W
b000 ^
b001 n
#56
0T
0g
0d
0Y
0D
0w
0$
0W
#61
1T
b1111 4
1g
1d
b111 "
1Y
b111 V
1D
1w
1$
1W
b111 ^
b000 n
#66
0T
0g
0d
0Y
0D
0w
0$
0W
#71
b0000000001 B
1u
1`
b1110 4
1g
1Y
1D
1w
1T
b110 "
1d
b010 V
1$
1W
b110 ^
1A
b111 n
#76
0T
0g
0d
0Y
0D
0w
0$
0W
#81
0u
0`
b0001 4
1g
1Y
b00000000001 5
1D
1w
b0000000001 Z
b0000000001 a
b0000000001 p
b0000000010 >
1T
b001 "
b0000000010 y
1d
b001 V
1$
1W
b001 ^
b00000000010 |
0A
b010 n
#86
0T
0g
0d
0Y
0D
0w
0$
0W
#91
b0000 4
1g
b0000000001 X
b0000000001 &
1Y
1D
1w
b0000000001 x
b0000000001 M
1T
b000 "
1d
b000 V
b0000000001 9
1$
1W
b000 ^
b0000000001 :
b001 n
#96
0T
0g
0d
0Y
0D
0w
0$
0W
#101
1T
b1111 4
1g
1d
b111 "
1Y
b111 V
1D
1w
1$
1W
b111 ^
b000 n
#106
0T
0g
0d
0Y
0D
0w
0$
0W
#111
b0000000010 B
1u
1`
b1110 4
1g
1Y
1D
1w
1T
b110 "
1d
b010 V
1$
1W
b110 ^
1A
b111 n
#116
0T
0g
0d
0Y
0D
0w
0$
0W
#121
0u
0`
b0001 4
1g
1Y
b00000000010 5
1D
1w
b0000000010 Z
b0000000010 a
b0000000010 p
b0000000011 >
1T
b001 "
b0000000011 y
1d
b001 V
1$
1W
b001 ^
b00000000011 |
0A
b010 n
#126
0T
0g
0d
0Y
0D
0w
0$
0W
#131
b0000 4
1g
b0000000010 X
b0000000010 &
1Y
1D
1w
b0000000010 x
b0000000010 M
1T
b000 "
1d
b000 V
b0000000010 9
1$
1W
b000 ^
b0000000010 :
b001 n
#136
0T
0g
0d
0Y
0D
0w
0$
0W
#141
1T
b1111 4
1g
1d
b111 "
1Y
b111 V
1D
1w
1$
1W
b111 ^
b000 n
#146
0T
0g
0d
0Y
0D
0w
0$
0W
#151
b0000000011 B
1u
1`
b1110 4
1g
1Y
1D
1w
1T
b110 "
1d
b010 V
1$
1W
b110 ^
1A
b111 n
#156
0T
0g
0d
0Y
0D
0w
0$
0W
#161
0u
0`
b0001 4
1g
1Y
b00000000011 5
1D
1w
b0000000011 Z
b0000000011 a
b0000000011 p
b0000000100 >
1T
b001 "
b0000000100 y
1d
b001 V
1$
1W
b001 ^
b00000000100 |
0A
b010 n
#166
0T
0g
0d
0Y
0D
0w
0$
0W
#171
b0000 4
1g
b0000000011 X
b0000000011 &
1Y
1D
1w
b0000000011 x
b0000000011 M
1T
b000 "
1d
b000 V
b0000000011 9
1$
1W
b000 ^
b0000000011 :
b001 n
#176
0T
0g
0d
0Y
0D
0w
0$
0W
#181
1T
b1111 4
1g
1d
b111 "
1Y
b111 V
1D
1w
1$
1W
b111 ^
b000 n
#186
0T
0g
0d
0Y
0D
0w
0$
0W
#191
b0000000100 B
1u
1`
b1110 4
1g
1Y
1D
1w
1T
b110 "
1d
b010 V
1$
1W
b110 ^
1A
b111 n
#196
0T
0g
0d
0Y
0D
0w
0$
0W
#201
0u
0`
b0001 4
1g
1Y
b00000000100 5
1D
1w
b0000000100 Z
b0000000100 a
b0000000100 p
b0000000101 >
1T
b001 "
b0000000101 y
1d
b001 V
1$
1W
b001 ^
b00000000101 |
0A
b010 n
#206
0T
0g
0d
0Y
0D
0w
0$
0W
#211
b0000 4
1g
b0000000100 X
b0000000100 &
1Y
1D
1w
b0000000100 x
b0000000100 M
1T
b000 "
1d
b000 V
b0000000100 9
1$
1W
b000 ^
b0000000100 :
b001 n
#216
0T
0g
0d
0Y
0D
0w
0$
0W
#221
1T
b1111 4
1g
1d
b111 "
1Y
b111 V
1D
1w
1$
1W
b111 ^
b000 n
#226
0T
0g
0d
0Y
0D
0w
0$
0W
#231
b0000000101 B
1u
1`
b1110 4
1g
1Y
1D
1w
1T
b110 "
1d
b010 V
1$
1W
b110 ^
1A
b111 n
#236
0T
0g
0d
0Y
0D
0w
0$
0W
#241
0u
0`
b0001 4
1g
1Y
b00000000101 5
1D
1w
b0000000101 Z
b0000000101 a
b0000000101 p
b0000000110 >
1T
b001 "
b0000000110 y
1d
b001 V
1$
1W
b001 ^
b00000000110 |
0A
b010 n
#246
0T
0g
0d
0Y
0D
0w
0$
0W
#251
b0000 4
1g
b0000000101 X
b0000000101 &
1Y
1D
1w
b0000000101 x
b0000000101 M
1T
b000 "
1d
b000 V
b0000000101 9
1$
1W
b000 ^
b0000000101 :
b001 n
#256
0T
0g
0d
0Y
0D
0w
0$
0W
#261
1T
b1111 4
1g
1d
b111 "
1Y
b111 V
1D
1w
1$
1W
b111 ^
b000 n
#266
0T
0g
0d
0Y
0D
0w
0$
0W
#271
b0000000110 B
1u
1`
b1110 4
1g
1Y
1D
1w
1T
b110 "
1d
b010 V
1$
1W
b110 ^
1A
b111 n
#276
0T
0g
0d
0Y
0D
0w
0$
0W
#281
0u
0`
b0001 4
1g
1Y
b00000000110 5
1D
1w
b0000000110 Z
b0000000110 a
b0000000110 p
b0000000111 >
1T
b001 "
b0000000111 y
1d
b001 V
1$
1W
b001 ^
b00000000111 |
0A
b010 n
#286
0T
0g
0d
0Y
0D
0w
0$
0W
#291
b0000 4
1g
b0000000110 X
b0000000110 &
1Y
1D
1w
b0000000110 x
b0000000110 M
1T
b000 "
1d
b000 V
b0000000110 9
1$
1W
b000 ^
b0000000110 :
b001 n
#296
0T
0g
0d
0Y
0D
0w
0$
0W
#301
1T
b1111 4
1g
1d
b111 "
1Y
b111 V
1D
1w
1$
1W
b111 ^
b000 n
#306
0T
0g
0d
0Y
0D
0w
0$
0W
#311
b0000000111 B
1u
1`
b1110 4
1g
1Y
1D
1w
1T
b110 "
1d
b010 V
1$
1W
b110 ^
1A
b111 n
#316
0T
0g
0d
0Y
0D
0w
0$
0W
#321
0u
0`
b0001 4
1g
1Y
b00000000111 5
1D
1w
b0000000111 Z
b0000000111 a
b0000000111 p
b0000001000 >
1T
b001 "
b0000001000 y
1d
b001 V
1$
1W
b001 ^
b00000001000 |
0A
b010 n
#326
0T
0g
0d
0Y
0D
0w
0$
0W
#331
b0000 4
1g
b0000000111 X
b0000000111 &
1Y
1D
1w
b0000000111 x
b0000000111 M
1T
b000 "
1d
b000 V
b0000000111 9
1$
1W
b000 ^
b0000000111 :
b001 n
#336
0T
0g
0d
0Y
0D
0w
0$
0W
#341
1T
b1111 4
1g
1d
b111 "
1Y
b111 V
1D
1w
1$
1W
b111 ^
b000 n
#346
0T
0g
0d
0Y
0D
0w
0$
0W
#351
b0000001000 B
1u
1`
b1110 4
1g
1Y
1D
1w
1T
b110 "
1d
b010 V
1$
1W
b110 ^
1A
b111 n
#356
0T
0g
0d
0Y
0D
0w
0$
0W
#361
0u
0`
b0001 4
1g
1Y
b00000001000 5
1D
1w
b0000001000 Z
b0000001000 a
b0000001000 p
b0000001001 >
1T
b001 "
b0000001001 y
1d
b001 V
1$
1W
b001 ^
b00000001001 |
0A
b010 n
#366
0T
0g
0d
0Y
0D
0w
0$
0W
#371
b0000 4
1g
b0000001000 X
b0000001000 &
1Y
1D
1w
b0000001000 x
b0000001000 M
1T
b000 "
1d
b000 V
b0000001000 9
1$
1W
b000 ^
b0000001000 :
b001 n
#376
0T
0g
0d
0Y
0D
0w
0$
0W
#381
1T
b1111 4
1g
1d
b111 "
1Y
b111 V
1D
1w
1$
1W
b111 ^
b000 n
#386
0T
0g
0d
0Y
0D
0w
0$
0W
#391
b0000001001 B
1u
1`
b1110 4
1g
1Y
1D
1w
1T
b110 "
1d
b010 V
1$
1W
b110 ^
1A
b111 n
#396
0T
0g
0d
0Y
0D
0w
0$
0W
#401
0u
0`
b0001 4
1g
1Y
b00000001001 5
1D
1w
b0000001001 Z
b0000001001 a
b0000001001 p
b0000001010 >
1T
b001 "
b0000001010 y
1d
b001 V
1$
1W
b001 ^
b00000001010 |
0A
b010 n
#406
0T
0g
0d
0Y
0D
0w
0$
0W
#411
b0000 4
1g
b0000001001 X
b0000001001 &
1Y
1D
1w
b0000001001 x
b0000001001 M
1T
b000 "
1d
b000 V
b0000001001 9
1$
1W
b000 ^
b0000001001 :
b001 n
#416
0T
0g
0d
0Y
0D
0w
0$
0W
#421
1T
b1111 4
1g
1d
b111 "
1Y
b111 V
1D
1w
1$
1W
b111 ^
b000 n
#426
0T
0g
0d
0Y
0D
0w
0$
0W
#431
b0000001010 B
1u
1`
b1110 4
1g
1Y
1D
1w
1T
b110 "
1d
b010 V
1$
1W
b110 ^
1A
b111 n
#436
0T
0g
0d
0Y
0D
0w
0$
0W
#441
0u
0`
b0001 4
1g
1Y
b00000001010 5
1D
1w
b0000001010 Z
b0000001010 a
b0000001010 p
b0000001011 >
1T
b001 "
b0000001011 y
1d
b001 V
1$
1W
b001 ^
b00000001011 |
0A
b010 n
#446
0T
0g
0d
0Y
0D
0w
0$
0W
#451
b0000 4
1g
b0000001010 X
b0000001010 &
1Y
1D
1w
b0000001010 x
b0000001010 M
1T
b000 "
1d
b000 V
b0000001010 9
1$
1W
b000 ^
b0000001010 :
b001 n
#456
0T
0g
0d
0Y
0D
0w
0$
0W
#461
1T
b1111 4
1g
1d
b111 "
1Y
b111 V
1D
1w
1$
1W
b111 ^
b000 n
#466
0T
0g
0d
0Y
0D
0w
0$
0W
#471
b0000001011 B
1u
1`
b1110 4
1g
1Y
1D
1w
1T
b110 "
1d
b010 V
1$
1W
b110 ^
1A
b111 n
#476
0T
0g
0d
0Y
0D
0w
0$
0W
#481
0u
0`
b0001 4
1g
1Y
b00000001011 5
1D
1w
b0000001011 Z
b0000001011 a
b0000001011 p
b0000001100 >
1T
b001 "
b0000001100 y
1d
b001 V
1$
1W
b001 ^
b00000001100 |
0A
b010 n
#486
0T
0g
0d
0Y
0D
0w
0$
0W
#491
b0000 4
1g
b0000001011 X
b0000001011 &
1Y
1D
1w
b0000001011 x
b0000001011 M
1T
b000 "
1d
b000 V
b0000001011 9
1$
1W
b000 ^
b0000001011 :
b001 n
#496
0T
0g
0d
0Y
0D
0w
0$
0W
#501
1T
b1111 4
1g
1d
b111 "
1Y
b111 V
1D
1w
1$
1W
b111 ^
b000 n
#506
0T
0g
0d
0Y
0D
0w
0$
0W
#511
b0000001100 B
1u
1`
b1110 4
1g
1Y
1D
1w
1T
b110 "
1d
b010 V
1$
1W
b110 ^
1A
b111 n
#516
0T
0g
0d
0Y
0D
0w
0$
0W
#521
0u
0`
b0001 4
1g
1Y
b00000001100 5
1D
1w
b0000001100 Z
b0000001100 a
b0000001100 p
b0000001101 >
1T
b001 "
b0000001101 y
1d
b001 V
1$
1W
b001 ^
b00000001101 |
0A
b010 n
#526
0T
0g
0d
0Y
0D
0w
0$
0W
#531
b0000 4
1g
b0000001100 X
b0000001100 &
1Y
1D
1w
b0000001100 x
b0000001100 M
1T
b000 "
1d
b000 V
b0000001100 9
1$
1W
b000 ^
b0000001100 :
b001 n
#536
0T
0g
0d
0Y
0D
0w
0$
0W
#541
1T
b1111 4
1g
1d
b111 "
1Y
b111 V
1D
1w
1$
1W
b111 ^
b000 n
#546
0T
0g
0d
0Y
0D
0w
0$
0W
#551
b0000001101 B
1u
1`
b1110 4
1g
1Y
1D
1w
1T
b110 "
1d
b010 V
1$
1W
b110 ^
1A
b111 n
#556
0T
0g
0d
0Y
0D
0w
0$
0W
#561
0u
0`
b0001 4
1g
1Y
b00000001101 5
1D
1w
b0000001101 Z
b0000001101 a
b0000001101 p
b0000001110 >
1T
b001 "
b0000001110 y
1d
b001 V
1$
1W
b001 ^
b00000001110 |
0A
b010 n
#566
0T
0g
0d
0Y
0D
0w
0$
0W
#571
b0000 4
1g
b0000001101 X
b0000001101 &
1Y
1D
1w
b0000001101 x
b0000001101 M
1T
b000 "
1d
b000 V
b0000001101 9
1$
1W
b000 ^
b0000001101 :
b001 n
#576
0T
0g
0d
0Y
0D
0w
0$
0W
#581
1T
b1111 4
1g
1d
b111 "
1Y
b111 V
1D
1w
1$
1W
b111 ^
b000 n
#586
0T
0g
0d
0Y
0D
0w
0$
0W
#591
b0000001110 B
1u
1`
b1110 4
1g
1Y
1D
1w
1T
b110 "
1d
b010 V
1$
1W
b110 ^
1A
b111 n
#596
0T
0g
0d
0Y
0D
0w
0$
0W
#601
0u
0`
b0001 4
1g
1Y
b00000001110 5
1D
1w
b0000001110 Z
b0000001110 a
b0000001110 p
b0000001111 >
1T
b001 "
b0000001111 y
1d
b001 V
1$
1W
b001 ^
b00000001111 |
0A
b010 n
#606
0T
0g
0d
0Y
0D
0w
0$
0W
#611
b0000 4
1g
b0000001110 X
b0000001110 &
1Y
1D
1w
b0000001110 x
b0000001110 M
1T
b000 "
1d
b000 V
b0000001110 9
1$
1W
b000 ^
b0000001110 :
b001 n
#616
0T
0g
0d
0Y
0D
0w
0$
0W
#621
1T
b1111 4
1g
1d
b111 "
1Y
b111 V
1D
1w
1$
1W
b111 ^
b000 n
#626
0T
0g
0d
0Y
0D
0w
0$
0W
#631
b0000001111 B
1u
1`
b1110 4
1g
1Y
1D
1w
1T
b110 "
1d
b010 V
1$
1W
b110 ^
1A
b111 n
#636
0T
0g
0d
0Y
0D
0w
0$
0W
#641
0u
0`
b0001 4
1g
1Y
b00000001111 5
1D
1w
b0000001111 Z
b0000001111 a
b0000001111 p
b0000010000 >
1T
b001 "
b0000010000 y
1d
b001 V
1$
1W
b001 ^
b00000010000 |
0A
b010 n
#646
0T
0g
0d
0Y
0D
0w
0$
0W
#651
b0000 4
1g
b0000001111 X
b0000001111 &
1Y
1D
1w
b0000001111 x
b0000001111 M
1T
b000 "
1d
b000 V
b0000001111 9
1$
1W
b000 ^
b0000001111 :
b001 n
#656
0T
0g
0d
0Y
0D
0w
0$
0W
#661
1T
b1111 4
1g
1d
b111 "
1Y
b111 V
1D
1w
1$
1W
b111 ^
b000 n
#666
0T
0g
0d
0Y
0D
0w
0$
0W
#671
b0000010000 B
1u
1`
b1110 4
1g
1Y
1D
1w
1T
b110 "
1d
b010 V
1$
1W
b110 ^
1A
b111 n
#676
0T
0g
0d
0Y
0D
0w
0$
0W
#681
0u
0`
b0001 4
1g
1Y
b00000010000 5
1D
1w
b0000010000 Z
b0000010000 a
b0000010000 p
b0000010001 >
1T
b001 "
b0000010001 y
1d
b001 V
1$
1W
b001 ^
b00000010001 |
0A
b010 n
#686
0T
0g
0d
0Y
0D
0w
0$
0W
#691
b0000 4
1g
b0000010000 X
b0000010000 &
1Y
1D
1w
b0000010000 x
b0000010000 M
1T
b000 "
1d
b000 V
b0000010000 9
1$
1W
b000 ^
b0000010000 :
b001 n
#696
0T
0g
0d
0Y
0D
0w
0$
0W
#701
1T
b1111 4
1g
1d
b111 "
1Y
b111 V
1D
1w
1$
1W
b111 ^
b000 n
#706
0T
0g
0d
0Y
0D
0w
0$
0W
#711
b0000010001 B
1u
1`
b1110 4
1g
1Y
1D
1w
1T
b110 "
1d
b010 V
1$
1W
b110 ^
1A
b111 n
#716
0T
0g
0d
0Y
0D
0w
0$
0W
#721
0u
0`
b0001 4
1g
1Y
b00000010001 5
1D
1w
b0000010001 Z
b0000010001 a
b0000010001 p
b0000010010 >
1T
b001 "
b0000010010 y
1d
b001 V
1$
1W
b001 ^
b00000010010 |
0A
b010 n
#726
0T
0g
0d
0Y
0D
0w
0$
0W
#731
b0000 4
1g
b0000010001 X
b0000010001 &
1Y
1D
1w
b0000010001 x
b0000010001 M
1T
b000 "
1d
b000 V
b0000010001 9
1$
1W
b000 ^
b0000010001 :
b001 n
#736
0T
0g
0d
0Y
0D
0w
0$
0W
#741
1T
b1111 4
1g
1d
b111 "
1Y
b111 V
1D
1w
1$
1W
b111 ^
b000 n
#746
0T
0g
0d
0Y
0D
0w
0$
0W
#751
b0000010010 B
1u
1`
b1110 4
1g
1Y
1D
1w
1T
b110 "
1d
b010 V
1$
1W
b110 ^
1A
b111 n
#756
0T
0g
0d
0Y
0D
0w
0$
0W
#761
0u
0`
b0001 4
1g
1Y
b00000010010 5
1D
1w
b0000010010 Z
b0000010010 a
b0000010010 p
b0000010011 >
1T
b001 "
b0000010011 y
1d
b001 V
1$
1W
b001 ^
b00000010011 |
0A
b010 n
#766
0T
0g
0d
0Y
0D
0w
0$
0W
#771
b0000 4
1g
b0000010010 X
b0000010010 &
1Y
1D
1w
b0000010010 x
b0000010010 M
1T
b000 "
1d
b000 V
b0000010010 9
1$
1W
b000 ^
b0000010010 :
b001 n
#776
0T
0g
0d
0Y
0D
0w
0$
0W
#781
1T
b1111 4
1g
1d
b111 "
1Y
b111 V
1D
1w
1$
1W
b111 ^
b000 n
#786
0T
0g
0d
0Y
0D
0w
0$
0W
#791
b0000010011 B
1u
1`
b1110 4
1g
1Y
1D
1w
1T
b110 "
1d
b010 V
1$
1W
b110 ^
1A
b111 n
#796
0T
0g
0d
0Y
0D
0w
0$
0W
#801
0u
0`
b0001 4
1g
1Y
b00000010011 5
1D
1w
b0000010011 Z
b0000010011 a
b0000010011 p
b0000010100 >
1T
b001 "
b0000010100 y
1d
b001 V
1$
1W
b001 ^
b00000010100 |
0A
b010 n
#806
0T
0g
0d
0Y
0D
0w
0$
0W
#811
b0000 4
1g
b0000010011 X
b0000010011 &
1Y
1D
1w
b0000010011 x
b0000010011 M
1T
b000 "
1d
b000 V
b0000010011 9
1$
1W
b000 ^
b0000010011 :
b001 n
#816
0T
0g
0d
0Y
0D
0w
0$
0W
#821
1T
b1111 4
1g
1d
b111 "
1Y
b111 V
1D
1w
1$
1W
b111 ^
b000 n
#826
0T
0g
0d
0Y
0D
0w
0$
0W
#831
b0000010100 B
1u
1`
b1110 4
1g
1Y
1D
1w
1T
b110 "
1d
b010 V
1$
1W
b110 ^
1A
b111 n
#836
0T
0g
0d
0Y
0D
0w
0$
0W
#841
0u
0`
b0001 4
1g
1Y
b00000010100 5
1D
1w
b0000010100 Z
b0000010100 a
b0000010100 p
b0000010101 >
1T
b001 "
b0000010101 y
1d
b001 V
1$
1W
b001 ^
b00000010101 |
0A
b010 n
#846
0T
0g
0d
0Y
0D
0w
0$
0W
#851
b0000 4
1g
b0000010100 X
b0000010100 &
1Y
1D
1w
b0000010100 x
b0000010100 M
1T
b000 "
1d
b000 V
b0000010100 9
1$
1W
b000 ^
b0000010100 :
b001 n
#856
0T
0g
0d
0Y
0D
0w
0$
0W
#861
1T
b1111 4
1g
1d
b111 "
1Y
b111 V
1D
1w
1$
1W
b111 ^
b000 n
#866
0T
0g
0d
0Y
0D
0w
0$
0W
#871
b0000010101 B
1u
1`
b1110 4
1g
1Y
1D
1w
1T
b110 "
1d
b010 V
1$
1W
b110 ^
1A
b111 n
#876
0T
0g
0d
0Y
0D
0w
0$
0W
#881
0u
0`
b0001 4
1g
1Y
b00000010101 5
1D
1w
b0000010101 Z
b0000010101 a
b0000010101 p
b0000010110 >
1T
b001 "
b0000010110 y
1d
b001 V
1$
1W
b001 ^
b00000010110 |
0A
b010 n
#886
0T
0g
0d
0Y
0D
0w
0$
0W
#891
b0000 4
1g
b0000010101 X
b0000010101 &
1Y
1D
1w
b0000010101 x
b0000010101 M
1T
b000 "
1d
b000 V
b0000010101 9
1$
1W
b000 ^
b0000010101 :
b001 n
#896
0T
0g
0d
0Y
0D
0w
0$
0W
#901
1T
b1111 4
1g
1d
b111 "
1Y
b111 V
1D
1w
1$
1W
b111 ^
b000 n
#906
0T
0g
0d
0Y
0D
0w
0$
0W
#911
b0000010110 B
1u
1`
b1110 4
1g
1Y
1D
1w
1T
b110 "
1d
b010 V
1$
1W
b110 ^
1A
b111 n
#916
0T
0g
0d
0Y
0D
0w
0$
0W
#921
0u
0`
b0001 4
1g
1Y
b00000010110 5
1D
1w
b0000010110 Z
b0000010110 a
b0000010110 p
b0000010111 >
1T
b001 "
b0000010111 y
1d
b001 V
1$
1W
b001 ^
b00000010111 |
0A
b010 n
#926
0T
0g
0d
0Y
0D
0w
0$
0W
#931
b0000 4
1g
b0000010110 X
b0000010110 &
1Y
1D
1w
b0000010110 x
b0000010110 M
1T
b000 "
1d
b000 V
b0000010110 9
1$
1W
b000 ^
b0000010110 :
b001 n
#936
0T
0g
0d
0Y
0D
0w
0$
0W
#941
1T
b1111 4
1g
1d
b111 "
1Y
b111 V
1D
1w
1$
1W
b111 ^
b000 n
#946
0T
0g
0d
0Y
0D
0w
0$
0W
#951
b0000010111 B
1u
1`
b1110 4
1g
1Y
1D
1w
1T
b110 "
1d
b010 V
1$
1W
b110 ^
1A
b111 n
#956
0T
0g
0d
0Y
0D
0w
0$
0W
#961
0u
0`
b0001 4
1g
1Y
b00000010111 5
1D
1w
b0000010111 Z
b0000010111 a
b0000010111 p
b0000011000 >
1T
b001 "
b0000011000 y
1d
b001 V
1$
1W
b001 ^
b00000011000 |
0A
b010 n
#966
0T
0g
0d
0Y
0D
0w
0$
0W
#971
b0000 4
1g
b0000010111 X
b0000010111 &
1Y
1D
1w
b0000010111 x
b0000010111 M
1T
b000 "
1d
b000 V
b0000010111 9
1$
1W
b000 ^
b0000010111 :
b001 n
#976
0T
0g
0d
0Y
0D
0w
0$
0W
#981
1T
b1111 4
1g
1d
b111 "
1Y
b111 V
1D
1w
1$
1W
b111 ^
b000 n
#986
0T
0g
0d
0Y
0D
0w
0$
0W
#991
b0000011000 B
1u
1`
b1110 4
1g
1Y
1D
1w
1T
b110 "
1d
b010 V
1$
1W
b110 ^
1A
b111 n
#996
0T
0g
0d
0Y
0D
0w
0$
0W
#1001
0u
0`
b0001 4
1g
1Y
b00000011000 5
1D
1w
b0000011000 Z
b0000011000 a
b0000011000 p
b0000011001 >
1T
b001 "
b0000011001 y
1d
b001 V
1$
1W
b001 ^
b00000011001 |
0A
b010 n
#1006
0T
0g
0d
0Y
0D
0w
0$
0W
#1011
b0000 4
1g
b0000011000 X
b0000011000 &
1Y
1D
1w
b0000011000 x
b0000011000 M
1T
b000 "
1d
b000 V
b0000011000 9
1$
1W
b000 ^
b0000011000 :
b001 n
#1016
0T
0g
0d
0Y
0D
0w
0$
0W
#1021
1T
b1111 4
1g
1d
b111 "
1Y
b111 V
1D
1w
1$
1W
b111 ^
b000 n
#1026
0T
0g
0d
0Y
0D
0w
0$
0W
#1031
b0000011001 B
1u
1`
b1110 4
1g
1Y
1D
1w
1T
b110 "
1d
b010 V
1$
1W
b110 ^
1A
b111 n
#1036
0T
0g
0d
0Y
0D
0w
0$
0W
#1041
0u
0`
b0001 4
1g
1Y
b00000011001 5
1D
1w
b0000011001 Z
b0000011001 a
b0000011001 p
b0000011010 >
1T
b001 "
b0000011010 y
1d
b001 V
1$
1W
b001 ^
b00000011010 |
0A
b010 n
#1046
0T
0g
0d
0Y
0D
0w
0$
0W
#1051
b0000 4
1g
b0000011001 X
b0000011001 &
1Y
1D
1w
b0000011001 x
b0000011001 M
1T
b000 "
1d
b000 V
b0000011001 9
1$
1W
b000 ^
b0000011001 :
b001 n
#1056
0T
0g
0d
0Y
0D
0w
0$
0W
#1061
1T
b1111 4
1g
1d
b111 "
1Y
b111 V
1D
1w
1$
1W
b111 ^
b000 n
#1066
0T
0g
0d
0Y
0D
0w
0$
0W
#1071
b0000011010 B
1u
1`
b1110 4
1g
1Y
1D
1w
1T
b110 "
1d
b010 V
1$
1W
b110 ^
1A
b111 n
#1076
0T
0g
0d
0Y
0D
0w
0$
0W
