test_run_dir/ProcessorSpec2030040219/Top.vcd
$date
2021-12-13T15:24+0000
$end
$version
0.2
$end
$comment

$end
$timescale 1ns  $end
$scope module Top $end
 $var wire 1 $ io_HS $end
 $var wire 4 & io_Gin $end
 $var wire 1 ( _T $end
 $var wire 4 , io_B $end
 $var wire 4 3 io_Rin $end
 $var wire 1 9 clkdiv $end
 $var wire 4 < io_G $end
 $var wire 1 D horCntr $end
 $var wire 1 G clock $end
 $var wire 1 I io_fuck $end
 $var wire 1 J verCntr $end
 $var wire 4 P io_R $end
 $var wire 4 R io_Bin $end
 $var wire 1 W reset $end
 $var wire 1 X io_VS $end
  $scope module horCntr $end
   $var wire 1 ! _GEN_4 $end
   $var wire 1 " outputReg2 $end
   $var wire 1 # reset $end
   $var wire 1 * _GEN_7 $end
   $var wire 1 . _GEN_1 $end
   $var wire 17 4 _T $end
   $var wire 1 5 _GEN_0 $end
   $var wire 1 6 outputReg1 $end
   $var wire 16 7 _GEN_3 $end
   $var wire 1 8 io_dispTime $end
   $var wire 16 : _GEN_6 $end
   $var wire 1 > io_pxlCLK $end
   $var wire 1 ? clock $end
   $var wire 16 E cntReg $end
   $var wire 1 L io_horSync $end
   $var wire 1 M _GEN_8 $end
   $var wire 1 N io_enVCnt $end
   $var wire 1 S _GEN_2 $end
  $upscope $end
  $scope module verCntr $end
   $var wire 1 % reset $end
   $var wire 1 ' outputReg2 $end
   $var wire 1 ) io_fuck $end
   $var wire 16 / cntReg $end
   $var wire 1 0 _GEN_2 $end
   $var wire 1 1 _GEN_8 $end
   $var wire 1 2 outputReg1 $end
   $var wire 1 = io_verSync $end
   $var wire 1 @ io_dispTime $end
   $var wire 1 B clock $end
   $var wire 1 C _GEN_1 $end
   $var wire 1 F _GEN_4 $end
   $var wire 1 K _GEN_7 $end
   $var wire 1 Q io_enVCnt $end
   $var wire 17 T _T $end
   $var wire 16 U _GEN_6 $end
   $var wire 1 V _GEN_0 $end
   $var wire 16 Y _GEN_3 $end
  $upscope $end
  $scope module clkdiv $end
   $var wire 1 + clock $end
   $var wire 1 - io_tick $end
   $var wire 3 ; _GEN_0 $end
   $var wire 4 A _T $end
   $var wire 1 H reset $end
   $var wire 3 O cntReg $end
  $upscope $end
$upscope $end
$enddefinitions $end
$dumpvars
0X
b0000 <
0C
0=
b0000000000000000 Y
0"
0V
0N
09
b0000000000000000 U
b00000000000000000 T
0J
05
b0000000000000000 :
0-
0L
0D
b000 ;
0F
01
0)
b0000 A
b0000 ,
0H
0@
0+
0W
0B
b0000 &
0%
0'
0S
0>
06
0!
b0000000000000000 E
0M
08
0#
b0000 P
b0000 3
02
b0000 R
0Q
0I
0K
0.
b000 O
00
b00000000000000000 4
0(
0G
b0000000000000000 7
0?
0*
b0000000000000000 /
0$
$end
#0
b00000000000000001 T
1%
b00000000000000001 4
b0000000000000001 Y
1#
1H
1W
b0000000000000001 7
b1111 A
b111 ;
#1
15
1S
1K
16
1L
1M
10
1F
11
1G
12
1*
1+
b0001 A
1B
1X
1C
1.
1'
1=
1(
1!
1?
1"
1@
18
1V
1$
b010 O
b001 ;
#6
0B
0?
0G
0+
#11
1B
1?
1G
1+
#16
0B
0?
0G
0+
#21
1B
1?
1G
1+
#26
0B
0?
0G
0+
#31
1B
1?
1G
1+
#36
0B
0?
0G
0+
#41
1B
1?
1G
1+
#46
0B
0?
0%
0G
0#
0H
0W
0+
#51
1B
1?
1G
1+
b001 O
b0000 A
b000 ;
#56
0B
0?
0G
0+
#61
1B
1?
1G
1+
b000 O
b1111 A
b111 ;
#66
0B
0?
0G
0+
#71
1B
1?
1-
1G
1+
b111 O
b0000000000000001 :
b1110 A
1>
b010 ;
#76
0B
0?
0G
0+
#81
1B
1?
0-
b00000000000000010 4
1G
b0000000000000001 E
1+
b010 O
b0000000000000010 7
b0001 A
0>
b001 ;
#86
0B
0?
0G
0+
#91
1B
1?
1G
1+
b001 O
b0000 A
b000 ;
#96
0B
0?
0G
0+
#101
1B
1?
1G
1+
b000 O
b1111 A
b111 ;
#106
0B
0?
0G
0+
#111
1B
1?
1-
1G
1+
b111 O
b0000000000000010 :
b1110 A
1>
b010 ;
#116
0B
0?
0G
0+
#121
1B
1?
0-
b00000000000000011 4
1G
b0000000000000010 E
1+
b010 O
b0000000000000011 7
b0001 A
0>
b001 ;
#126
0B
0?
0G
0+
#131
1B
1?
1G
1+
b001 O
b0000 A
b000 ;
#136
0B
0?
0G
0+
#141
1B
1?
1G
1+
b000 O
b1111 A
b111 ;
#146
0B
0?
0G
0+
#151
1B
1?
1-
1G
1+
b111 O
b0000000000000011 :
b1110 A
1>
b010 ;
#156
0B
0?
0G
0+
#161
1B
1?
0-
b00000000000000100 4
1G
b0000000000000011 E
1+
b010 O
b0000000000000100 7
b0001 A
0>
b001 ;
#166
0B
0?
0G
0+
#171
1B
1?
1G
1+
b001 O
b0000 A
b000 ;
#176
0B
0?
0G
0+
#181
1B
1?
1G
1+
b000 O
b1111 A
b111 ;
#186
0B
0?
0G
0+
#191
1B
1?
1-
1G
1+
b111 O
b0000000000000100 :
b1110 A
1>
b010 ;
#196
0B
0?
0G
0+
#201
1B
1?
0-
b00000000000000101 4
1G
b0000000000000100 E
1+
b010 O
b0000000000000101 7
b0001 A
0>
b001 ;
#206
0B
0?
0G
0+
#211
1B
1?
1G
1+
b001 O
b0000 A
b000 ;
#216
0B
0?
0G
0+
#221
1B
1?
1G
1+
b000 O
b1111 A
b111 ;
#226
0B
0?
0G
0+
#231
1B
1?
1-
1G
1+
b111 O
b0000000000000101 :
b1110 A
1>
b010 ;
#236
0B
0?
0G
0+
#241
1B
1?
0-
b00000000000000110 4
1G
b0000000000000101 E
1+
b010 O
b0000000000000110 7
b0001 A
0>
b001 ;
#246
0B
0?
0G
0+
#251
1B
1?
1G
1+
b001 O
b0000 A
b000 ;
#256
0B
0?
0G
0+
#261
1B
1?
1G
1+
b000 O
b1111 A
b111 ;
#266
0B
0?
0G
0+
#271
1B
1?
1-
1G
1+
b111 O
b0000000000000110 :
b1110 A
1>
b010 ;
#276
0B
0?
0G
0+
#281
1B
1?
0-
b00000000000000111 4
1G
b0000000000000110 E
1+
b010 O
b0000000000000111 7
b0001 A
0>
b001 ;
#286
0B
0?
0G
0+
#291
1B
1?
1G
1+
b001 O
b0000 A
b000 ;
#296
0B
0?
0G
0+
#301
1B
1?
1G
1+
b000 O
b1111 A
b111 ;
#306
0B
0?
0G
0+
#311
1B
1?
1-
1G
1+
b111 O
b0000000000000111 :
b1110 A
1>
b010 ;
#316
0B
0?
0G
0+
#321
1B
1?
0-
b00000000000001000 4
1G
b0000000000000111 E
1+
b010 O
b0000000000001000 7
b0001 A
0>
b001 ;
#326
0B
0?
0G
0+
#331
1B
1?
1G
1+
b001 O
b0000 A
b000 ;
#336
0B
0?
0G
0+
#341
1B
1?
1G
1+
b000 O
b1111 A
b111 ;
#346
0B
0?
0G
0+
#351
1B
1?
1-
1G
1+
b111 O
b0000000000001000 :
b1110 A
1>
b010 ;
#356
0B
0?
0G
0+
#361
1B
1?
0-
b00000000000001001 4
1G
b0000000000001000 E
1+
b010 O
b0000000000001001 7
b0001 A
0>
b001 ;
#366
0B
0?
0G
0+
#371
1B
1?
1G
1+
b001 O
b0000 A
b000 ;
#376
0B
0?
0G
0+
#381
1B
1?
1G
1+
b000 O
b1111 A
b111 ;
#386
0B
0?
0G
0+
#391
1B
1?
1-
1G
1+
b111 O
b0000000000001001 :
b1110 A
1>
b010 ;
#396
0B
0?
0G
0+
#401
1B
1?
0-
b00000000000001010 4
1G
b0000000000001001 E
1+
b010 O
b0000000000001010 7
b0001 A
0>
b001 ;
#406
0B
0?
0G
0+
#411
1B
1?
1G
1+
b001 O
b0000 A
b000 ;
#416
0B
0?
0G
0+
#421
1B
1?
1G
1+
b000 O
b1111 A
b111 ;
#426
0B
0?
0G
0+
#431
1B
1?
1-
1G
1+
b111 O
b0000000000001010 :
b1110 A
1>
b010 ;
#436
0B
0?
0G
0+
#441
1B
1?
0-
b00000000000001011 4
1G
b0000000000001010 E
1+
b010 O
b0000000000001011 7
b0001 A
0>
b001 ;
#446
0B
0?
0G
0+
#451
1B
1?
1G
1+
b001 O
b0000 A
b000 ;
#456
0B
0?
0G
0+
#461
1B
1?
1G
1+
b000 O
b1111 A
b111 ;
#466
0B
0?
0G
0+
#471
1B
1?
1-
1G
1+
b111 O
b0000000000001011 :
b1110 A
1>
b010 ;
#476
0B
0?
0G
0+
#481
1B
1?
0-
b00000000000001100 4
1G
b0000000000001011 E
1+
b010 O
b0000000000001100 7
b0001 A
0>
b001 ;
#486
0B
0?
0G
0+
#491
1B
1?
1G
1+
b001 O
b0000 A
b000 ;
#496
0B
0?
0G
0+
#501
1B
1?
1G
1+
b000 O
b1111 A
b111 ;
#506
0B
0?
0G
0+
#511
1B
1?
1-
1G
1+
b111 O
b0000000000001100 :
b1110 A
1>
b010 ;
#516
0B
0?
0G
0+
#521
1B
1?
0-
b00000000000001101 4
1G
b0000000000001100 E
1+
b010 O
b0000000000001101 7
b0001 A
0>
b001 ;
#526
0B
0?
0G
0+
#531
1B
1?
1G
1+
b001 O
b0000 A
b000 ;
#536
0B
0?
0G
0+
#541
1B
1?
1G
1+
b000 O
b1111 A
b111 ;
#546
0B
0?
0G
0+
#551
1B
1?
1-
1G
1+
b111 O
b0000000000001101 :
b1110 A
1>
b010 ;
#556
0B
0?
0G
0+
#561
1B
1?
0-
b00000000000001110 4
1G
b0000000000001101 E
1+
b010 O
b0000000000001110 7
b0001 A
0>
b001 ;
#566
0B
0?
0G
0+
#571
1B
1?
1G
1+
b001 O
b0000 A
b000 ;
#576
0B
0?
0G
0+
#581
1B
1?
1G
1+
b000 O
b1111 A
b111 ;
#586
0B
0?
0G
0+
#591
1B
1?
1-
1G
1+
b111 O
b0000000000001110 :
b1110 A
1>
b010 ;
#596
0B
0?
0G
0+
#601
1B
1?
0-
b00000000000001111 4
1G
b0000000000001110 E
1+
b010 O
b0000000000001111 7
b0001 A
0>
b001 ;
#606
0B
0?
0G
0+
#611
1B
1?
1G
1+
b001 O
b0000 A
b000 ;
#616
0B
0?
0G
0+
#621
1B
1?
1G
1+
b000 O
b1111 A
b111 ;
#626
0B
0?
0G
0+
#631
1B
1?
1-
1G
1+
b111 O
b0000000000001111 :
b1110 A
1>
b010 ;
#636
0B
0?
0G
0+
#641
1B
1?
0-
b00000000000010000 4
1G
b0000000000001111 E
1+
b010 O
b0000000000010000 7
b0001 A
0>
b001 ;
#646
0B
0?
0G
0+
#651
1B
1?
1G
1+
b001 O
b0000 A
b000 ;
#656
0B
0?
0G
0+
#661
1B
1?
1G
1+
b000 O
b1111 A
b111 ;
#666
0B
0?
0G
0+
#671
1B
1?
1-
1G
1+
b111 O
b0000000000010000 :
b1110 A
1>
b010 ;
#676
0B
0?
0G
0+
#681
1B
1?
0-
b00000000000010001 4
1G
b0000000000010000 E
1+
b010 O
b0000000000010001 7
b0001 A
0>
b001 ;
#686
0B
0?
0G
0+
#691
1B
1?
1G
1+
b001 O
b0000 A
b000 ;
#696
0B
0?
0G
0+
#701
1B
1?
1G
1+
b000 O
b1111 A
b111 ;
#706
0B
0?
0G
0+
#711
1B
1?
1-
1G
1+
b111 O
b0000000000010001 :
b1110 A
1>
b010 ;
#716
0B
0?
0G
0+
#721
1B
1?
0-
b00000000000010010 4
1G
b0000000000010001 E
1+
b010 O
b0000000000010010 7
b0001 A
0>
b001 ;
#726
0B
0?
0G
0+
#731
1B
1?
1G
1+
b001 O
b0000 A
b000 ;
#736
0B
0?
0G
0+
#741
1B
1?
1G
1+
b000 O
b1111 A
b111 ;
#746
0B
0?
0G
0+
#751
1B
1?
1-
1G
1+
b111 O
b0000000000010010 :
b1110 A
1>
b010 ;
#756
0B
0?
0G
0+
#761
1B
1?
0-
b00000000000010011 4
1G
b0000000000010010 E
1+
b010 O
b0000000000010011 7
b0001 A
0>
b001 ;
#766
0B
0?
0G
0+
#771
1B
1?
1G
1+
b001 O
b0000 A
b000 ;
#776
0B
0?
0G
0+
#781
1B
1?
1G
1+
b000 O
b1111 A
b111 ;
#786
0B
0?
0G
0+
#791
1B
1?
1-
1G
1+
b111 O
b0000000000010011 :
b1110 A
1>
b010 ;
#796
0B
0?
0G
0+
#801
1B
1?
0-
b00000000000010100 4
1G
b0000000000010011 E
1+
b010 O
b0000000000010100 7
b0001 A
0>
b001 ;
#806
0B
0?
0G
0+
#811
1B
1?
1G
1+
b001 O
b0000 A
b000 ;
#816
0B
0?
0G
0+
#821
1B
1?
1G
1+
b000 O
b1111 A
b111 ;
#826
0B
0?
0G
0+
#831
1B
1?
1-
1G
1+
b111 O
b0000000000010100 :
b1110 A
1>
b010 ;
#836
0B
0?
0G
0+
#841
1B
1?
0-
b00000000000010101 4
1G
b0000000000010100 E
1+
b010 O
b0000000000010101 7
b0001 A
0>
b001 ;
#846
0B
0?
0G
0+
#851
1B
1?
1G
1+
b001 O
b0000 A
b000 ;
#856
0B
0?
0G
0+
#861
1B
1?
1G
1+
b000 O
b1111 A
b111 ;
#866
0B
0?
0G
0+
#871
1B
1?
1-
1G
1+
b111 O
b0000000000010101 :
b1110 A
1>
b010 ;
#876
0B
0?
0G
0+
#881
1B
1?
0-
b00000000000010110 4
1G
b0000000000010101 E
1+
b010 O
b0000000000010110 7
b0001 A
0>
b001 ;
#886
0B
0?
0G
0+
#891
1B
1?
1G
1+
b001 O
b0000 A
b000 ;
#896
0B
0?
0G
0+
#901
1B
1?
1G
1+
b000 O
b1111 A
b111 ;
#906
0B
0?
0G
0+
#911
1B
1?
1-
1G
1+
b111 O
b0000000000010110 :
b1110 A
1>
b010 ;
#916
0B
0?
0G
0+
#921
1B
1?
0-
b00000000000010111 4
1G
b0000000000010110 E
1+
b010 O
b0000000000010111 7
b0001 A
0>
b001 ;
#926
0B
0?
0G
0+
#931
1B
1?
1G
1+
b001 O
b0000 A
b000 ;
#936
0B
0?
0G
0+
#941
1B
1?
1G
1+
b000 O
b1111 A
b111 ;
#946
0B
0?
0G
0+
#951
1B
1?
1-
1G
1+
b111 O
b0000000000010111 :
b1110 A
1>
b010 ;
#956
0B
0?
0G
0+
#961
1B
1?
0-
b00000000000011000 4
1G
b0000000000010111 E
1+
b010 O
b0000000000011000 7
b0001 A
0>
b001 ;
#966
0B
0?
0G
0+
#971
1B
1?
1G
1+
b001 O
b0000 A
b000 ;
#976
0B
0?
0G
0+
#981
1B
1?
1G
1+
b000 O
b1111 A
b111 ;
#986
0B
0?
0G
0+
#991
1B
1?
1-
1G
1+
b111 O
b0000000000011000 :
b1110 A
1>
b010 ;
#996
0B
0?
0G
0+
#1001
1B
1?
0-
b00000000000011001 4
1G
b0000000000011000 E
1+
b010 O
b0000000000011001 7
b0001 A
0>
b001 ;
#1006
0B
0?
0G
0+
#1011
1B
1?
1G
1+
b001 O
b0000 A
b000 ;
#1016
0B
0?
0G
0+
#1021
1B
1?
1G
1+
b000 O
b1111 A
b111 ;
#1026
0B
0?
0G
0+
#1031
1B
1?
1-
1G
1+
b111 O
b0000000000011001 :
b1110 A
1>
b010 ;
#1036
0B
0?
0G
0+
#1041
1B
1?
0-
b00000000000011010 4
1G
b0000000000011001 E
1+
b010 O
b0000000000011010 7
b0001 A
0>
b001 ;
#1046
0B
0?
0G
0+
#1051
1B
1?
1G
1+
b001 O
b0000 A
b000 ;
#1056
0B
0?
0G
0+
#1061
1B
1?
1G
1+
b000 O
b1111 A
b111 ;
#1066
0B
0?
0G
0+
#1071
1B
1?
1-
1G
1+
b111 O
b0000000000011010 :
b1110 A
1>
b010 ;
#1076
0B
0?
0G
0+
#1081
1B
1?
0-
b00000000000011011 4
1G
b0000000000011010 E
1+
b010 O
b0000000000011011 7
b0001 A
0>
b001 ;
#1086
0B
0?
0G
0+
#1091
1B
1?
1G
1+
b001 O
b0000 A
b000 ;
#1096
0B
0?
0G
0+
#1101
1B
1?
1G
1+
b000 O
b1111 A
b111 ;
#1106
0B
0?
0G
0+
#1111
1B
1?
1-
1G
1+
b111 O
b0000000000011011 :
b1110 A
1>
b010 ;
#1116
0B
0?
0G
0+
#1121
1B
1?
0-
b00000000000011100 4
1G
b0000000000011011 E
1+
b010 O
b0000000000011100 7
b0001 A
0>
b001 ;
#1126
0B
0?
0G
0+
#1131
1B
1?
1G
1+
b001 O
b0000 A
b000 ;
#1136
0B
0?
0G
0+
#1141
1B
1?
1G
1+
b000 O
b1111 A
b111 ;
#1146
0B
0?
0G
0+
#1151
1B
1?
1-
1G
1+
b111 O
b0000000000011100 :
b1110 A
1>
b010 ;
#1156
0B
0?
0G
0+
#1161
1B
1?
0-
b00000000000011101 4
1G
b0000000000011100 E
1+
b010 O
b0000000000011101 7
b0001 A
0>
b001 ;
#1166
0B
0?
0G
0+
#1171
1B
1?
1G
1+
b001 O
b0000 A
b000 ;
#1176
0B
0?
0G
0+
#1181
1B
1?
1G
1+
b000 O
b1111 A
b111 ;
#1186
0B
0?
0G
0+
#1191
1B
1?
1-
1G
1+
b111 O
b0000000000011101 :
b1110 A
1>
b010 ;
#1196
0B
0?
0G
0+
#1201
1B
1?
0-
b00000000000011110 4
1G
b0000000000011101 E
1+
b010 O
b0000000000011110 7
b0001 A
0>
b001 ;
#1206
0B
0?
0G
0+
#1211
1B
1?
1G
1+
b001 O
b0000 A
b000 ;
#1216
0B
0?
0G
0+
#1221
1B
1?
1G
1+
b000 O
b1111 A
b111 ;
#1226
0B
0?
0G
0+
#1231
1B
1?
1-
1G
1+
b111 O
b0000000000011110 :
b1110 A
1>
b010 ;
#1236
0B
0?
0G
0+
#1241
1B
1?
0-
b00000000000011111 4
1G
b0000000000011110 E
1+
b010 O
b0000000000011111 7
b0001 A
0>
b001 ;
#1246
0B
0?
0G
0+
#1251
1B
1?
1G
1+
b001 O
b0000 A
b000 ;
#1256
0B
0?
0G
0+
#1261
1B
1?
1G
1+
b000 O
b1111 A
b111 ;
#1266
0B
0?
0G
0+
#1271
1B
1?
1-
1G
1+
b111 O
b0000000000011111 :
b1110 A
1>
b010 ;
#1276
0B
0?
0G
0+
#1281
1B
1?
0-
b00000000000100000 4
1G
b0000000000011111 E
1+
b010 O
b0000000000100000 7
b0001 A
0>
b001 ;
#1286
0B
0?
0G
0+
#1291
1B
1?
1G
1+
b001 O
b0000 A
b000 ;
#1296
0B
0?
0G
0+
#1301
1B
1?
1G
1+
b000 O
b1111 A
b111 ;
#1306
0B
0?
0G
0+
#1311
1B
1?
1-
1G
1+
b111 O
b0000000000100000 :
b1110 A
1>
b010 ;
#1316
0B
0?
0G
0+
#1321
1B
1?
0-
b00000000000100001 4
1G
b0000000000100000 E
1+
b010 O
b0000000000100001 7
b0001 A
0>
b001 ;
#1326
0B
0?
0G
0+
#1331
1B
1?
1G
1+
b001 O
b0000 A
b000 ;
#1336
0B
0?
0G
0+
#1341
1B
1?
1G
1+
b000 O
b1111 A
b111 ;
#1346
0B
0?
0G
0+
#1351
1B
1?
1-
1G
1+
b111 O
b0000000000100001 :
b1110 A
1>
b010 ;
#1356
0B
0?
0G
0+
#1361
1B
1?
0-
b00000000000100010 4
1G
b0000000000100001 E
1+
b010 O
b0000000000100010 7
b0001 A
0>
b001 ;
#1366
0B
0?
0G
0+
#1371
1B
1?
1G
1+
b001 O
b0000 A
b000 ;
#1376
0B
0?
0G
0+
#1381
1B
1?
1G
1+
b000 O
b1111 A
b111 ;
#1386
0B
0?
0G
0+
#1391
1B
1?
1-
1G
1+
b111 O
b0000000000100010 :
b1110 A
1>
b010 ;
#1396
0B
0?
0G
0+
#1401
1B
1?
0-
b00000000000100011 4
1G
b0000000000100010 E
1+
b010 O
b0000000000100011 7
b0001 A
0>
b001 ;
#1406
0B
0?
0G
0+
#1411
1B
1?
1G
1+
b001 O
b0000 A
b000 ;
#1416
0B
0?
0G
0+
#1421
1B
1?
1G
1+
b000 O
b1111 A
b111 ;
#1426
0B
0?
0G
0+
#1431
1B
1?
1-
1G
1+
b111 O
b0000000000100011 :
b1110 A
1>
b010 ;
#1436
0B
0?
0G
0+
#1441
1B
1?
0-
b00000000000100100 4
1G
b0000000000100011 E
1+
b010 O
b0000000000100100 7
b0001 A
0>
b001 ;
#1446
0B
0?
0G
0+
#1451
1B
1?
1G
1+
b001 O
b0000 A
b000 ;
#1456
0B
0?
0G
0+
#1461
1B
1?
1G
1+
b000 O
b1111 A
b111 ;
#1466
0B
0?
0G
0+
#1471
1B
1?
1-
1G
1+
b111 O
b0000000000100100 :
b1110 A
1>
b010 ;
#1476
0B
0?
0G
0+
#1481
1B
1?
0-
b00000000000100101 4
1G
b0000000000100100 E
1+
b010 O
b0000000000100101 7
b0001 A
0>
b001 ;
#1486
0B
0?
0G
0+
#1491
1B
1?
1G
1+
b001 O
b0000 A
b000 ;
#1496
0B
0?
0G
0+
#1501
1B
1?
1G
1+
b000 O
b1111 A
b111 ;
#1506
0B
0?
0G
0+
#1511
1B
1?
1-
1G
1+
b111 O
b0000000000100101 :
b1110 A
1>
b010 ;
#1516
0B
0?
0G
0+
#1521
1B
1?
0-
b00000000000100110 4
1G
b0000000000100101 E
1+
b010 O
b0000000000100110 7
b0001 A
0>
b001 ;
#1526
0B
0?
0G
0+
#1531
1B
1?
1G
1+
b001 O
b0000 A
b000 ;
#1536
0B
0?
0G
0+
#1541
1B
1?
1G
1+
b000 O
b1111 A
b111 ;
#1546
0B
0?
0G
0+
#1551
1B
1?
1-
1G
1+
b111 O
b0000000000100110 :
b1110 A
1>
b010 ;
#1556
0B
0?
0G
0+
#1561
1B
1?
0-
b00000000000100111 4
1G
b0000000000100110 E
1+
b010 O
b0000000000100111 7
b0001 A
0>
b001 ;
#1566
0B
0?
0G
0+
#1571
1B
1?
1G
1+
b001 O
b0000 A
b000 ;
#1576
0B
0?
0G
0+
#1581
1B
1?
1G
1+
b000 O
b1111 A
b111 ;
#1586
0B
0?
0G
0+
#1591
1B
1?
1-
1G
1+
b111 O
b0000000000100111 :
b1110 A
1>
b010 ;
#1596
0B
0?
0G
0+
#1601
1B
1?
0-
b00000000000101000 4
1G
b0000000000100111 E
1+
b010 O
b0000000000101000 7
b0001 A
0>
b001 ;
#1606
0B
0?
0G
0+
#1611
1B
1?
1G
1+
b001 O
b0000 A
b000 ;
#1616
0B
0?
0G
0+
#1621
1B
1?
1G
1+
b000 O
b1111 A
b111 ;
#1626
0B
0?
0G
0+
#1631
1B
1?
1-
1G
1+
b111 O
b0000000000101000 :
b1110 A
1>
b010 ;
#1636
0B
0?
0G
0+
#1641
1B
1?
0-
b00000000000101001 4
1G
b0000000000101000 E
1+
b010 O
b0000000000101001 7
b0001 A
0>
b001 ;
#1646
0B
0?
0G
0+
#1651
1B
1?
1G
1+
b001 O
b0000 A
b000 ;
#1656
0B
0?
0G
0+
#1661
1B
1?
1G
1+
b000 O
b1111 A
b111 ;
#1666
0B
0?
0G
0+
#1671
1B
1?
1-
1G
1+
b111 O
b0000000000101001 :
b1110 A
1>
b010 ;
#1676
0B
0?
0G
0+
#1681
1B
1?
0-
b00000000000101010 4
1G
b0000000000101001 E
1+
b010 O
b0000000000101010 7
b0001 A
0>
b001 ;
#1686
0B
0?
0G
0+
#1691
1B
1?
1G
1+
b001 O
b0000 A
b000 ;
#1696
0B
0?
0G
0+
#1701
1B
1?
1G
1+
b000 O
b1111 A
b111 ;
#1706
0B
0?
0G
0+
#1711
1B
1?
1-
1G
1+
b111 O
b0000000000101010 :
b1110 A
1>
b010 ;
#1716
0B
0?
0G
0+
#1721
1B
1?
0-
b00000000000101011 4
1G
b0000000000101010 E
1+
b010 O
b0000000000101011 7
b0001 A
0>
b001 ;
#1726
0B
0?
0G
0+
#1731
1B
1?
1G
1+
b001 O
b0000 A
b000 ;
#1736
0B
0?
0G
0+
#1741
1B
1?
1G
1+
b000 O
b1111 A
b111 ;
#1746
0B
0?
0G
0+
#1751
1B
1?
1-
1G
1+
b111 O
b0000000000101011 :
b1110 A
1>
b010 ;
#1756
0B
0?
0G
0+
#1761
1B
1?
0-
b00000000000101100 4
1G
b0000000000101011 E
1+
b010 O
b0000000000101100 7
b0001 A
0>
b001 ;
#1766
0B
0?
0G
0+
#1771
1B
1?
1G
1+
b001 O
b0000 A
b000 ;
#1776
0B
0?
0G
0+
#1781
1B
1?
1G
1+
b000 O
b1111 A
b111 ;
#1786
0B
0?
0G
0+
#1791
1B
1?
1-
1G
1+
b111 O
b0000000000101100 :
b1110 A
1>
b010 ;
#1796
0B
0?
0G
0+
#1801
1B
1?
0-
b00000000000101101 4
1G
b0000000000101100 E
1+
b010 O
b0000000000101101 7
b0001 A
0>
b001 ;
#1806
0B
0?
0G
0+
#1811
1B
1?
1G
1+
b001 O
b0000 A
b000 ;
#1816
0B
0?
0G
0+
#1821
1B
1?
1G
1+
b000 O
b1111 A
b111 ;
#1826
0B
0?
0G
0+
#1831
1B
1?
1-
1G
1+
b111 O
b0000000000101101 :
b1110 A
1>
b010 ;
#1836
0B
0?
0G
0+
#1841
1B
1?
0-
b00000000000101110 4
1G
b0000000000101101 E
1+
b010 O
b0000000000101110 7
b0001 A
0>
b001 ;
#1846
0B
0?
0G
0+
#1851
1B
1?
1G
1+
b001 O
b0000 A
b000 ;
#1856
0B
0?
0G
0+
#1861
1B
1?
1G
1+
b000 O
b1111 A
b111 ;
#1866
0B
0?
0G
0+
#1871
1B
1?
1-
1G
1+
b111 O
b0000000000101110 :
b1110 A
1>
b010 ;
#1876
0B
0?
0G
0+
#1881
1B
1?
0-
b00000000000101111 4
1G
b0000000000101110 E
1+
b010 O
b0000000000101111 7
b0001 A
0>
b001 ;
#1886
0B
0?
0G
0+
#1891
1B
1?
1G
1+
b001 O
b0000 A
b000 ;
#1896
0B
0?
0G
0+
#1901
1B
1?
1G
1+
b000 O
b1111 A
b111 ;
#1906
0B
0?
0G
0+
#1911
1B
1?
1-
1G
1+
b111 O
b0000000000101111 :
b1110 A
1>
b010 ;
#1916
0B
0?
0G
0+
#1921
1B
1?
0-
b00000000000110000 4
1G
b0000000000101111 E
1+
b010 O
b0000000000110000 7
b0001 A
0>
b001 ;
#1926
0B
0?
0G
0+
#1931
1B
1?
1G
1+
b001 O
b0000 A
b000 ;
#1936
0B
0?
0G
0+
#1941
1B
1?
1G
1+
b000 O
b1111 A
b111 ;
#1946
0B
0?
0G
0+
#1951
1B
1?
1-
1G
1+
b111 O
b0000000000110000 :
b1110 A
1>
b010 ;
#1956
0B
0?
0G
0+
#1961
1B
1?
0-
b00000000000110001 4
1G
b0000000000110000 E
1+
b010 O
b0000000000110001 7
b0001 A
0>
b001 ;
#1966
0B
0?
0G
0+
#1971
1B
1?
1G
1+
b001 O
b0000 A
b000 ;
#1976
0B
0?
0G
0+
#1981
1B
1?
1G
1+
b000 O
b1111 A
b111 ;
#1986
0B
0?
0G
0+
#1991
1B
1?
1-
1G
1+
b111 O
b0000000000110001 :
b1110 A
1>
b010 ;
#1996
0B
0?
0G
0+
#2001
1B
1?
0-
b00000000000110010 4
1G
b0000000000110001 E
1+
b010 O
b0000000000110010 7
b0001 A
0>
b001 ;
#2006
0B
0?
0G
0+
#2011
1B
1?
1G
1+
b001 O
b0000 A
b000 ;
#2016
0B
0?
0G
0+
#2021
1B
1?
1G
1+
b000 O
b1111 A
b111 ;
#2026
0B
0?
0G
0+
#2031
1B
1?
1-
1G
1+
b111 O
b0000000000110010 :
b1110 A
1>
b010 ;
#2036
0B
0?
0G
0+
#2041
1B
1?
0-
b00000000000110011 4
1G
b0000000000110010 E
1+
b010 O
b0000000000110011 7
b0001 A
0>
b001 ;
#2046
0B
0?
0G
0+
#2051
1B
1?
1G
1+
b001 O
b0000 A
b000 ;
#2056
0B
0?
0G
0+
#2061
1B
1?
1G
1+
b000 O
b1111 A
b111 ;
#2066
0B
0?
0G
0+
#2071
1B
1?
1-
1G
1+
b111 O
b0000000000110011 :
b1110 A
1>
b010 ;
#2076
0B
0?
0G
0+
#2081
1B
1?
0-
b00000000000110100 4
1G
b0000000000110011 E
1+
b010 O
b0000000000110100 7
b0001 A
0>
b001 ;
#2086
0B
0?
0G
0+
#2091
1B
1?
1G
1+
b001 O
b0000 A
b000 ;
#2096
0B
0?
0G
0+
#2101
1B
1?
1G
1+
b000 O
b1111 A
b111 ;
#2106
0B
0?
0G
0+
#2111
1B
1?
1-
1G
1+
b111 O
b0000000000110100 :
b1110 A
1>
b010 ;
#2116
0B
0?
0G
0+
#2121
1B
1?
0-
b00000000000110101 4
1G
b0000000000110100 E
1+
b010 O
b0000000000110101 7
b0001 A
0>
b001 ;
#2126
0B
0?
0G
0+
#2131
1B
1?
1G
1+
b001 O
b0000 A
b000 ;
#2136
0B
0?
0G
0+
#2141
1B
1?
1G
1+
b000 O
b1111 A
b111 ;
#2146
0B
0?
0G
0+
#2151
1B
1?
1-
1G
1+
b111 O
b0000000000110101 :
b1110 A
1>
b010 ;
#2156
0B
0?
0G
0+
#2161
1B
1?
0-
b00000000000110110 4
1G
b0000000000110101 E
1+
b010 O
b0000000000110110 7
b0001 A
0>
b001 ;
#2166
0B
0?
0G
0+
#2171
1B
1?
1G
1+
b001 O
b0000 A
b000 ;
#2176
0B
0?
0G
0+
#2181
1B
1?
1G
1+
b000 O
b1111 A
b111 ;
#2186
0B
0?
0G
0+
#2191
1B
1?
1-
1G
1+
b111 O
b0000000000110110 :
b1110 A
1>
b010 ;
#2196
0B
0?
0G
0+
#2201
1B
1?
0-
b00000000000110111 4
1G
b0000000000110110 E
1+
b010 O
b0000000000110111 7
b0001 A
0>
b001 ;
#2206
0B
0?
0G
0+
#2211
1B
1?
1G
1+
b001 O
b0000 A
b000 ;
#2216
0B
0?
0G
0+
