test_run_dir/ProcessorSpec1134956651/Top.vcd
$date
2021-12-13T10:56+0000
$end
$version
0.2
$end
$comment

$end
$timescale 1ns  $end
$scope module Top $end
 $var wire 1 $ io_HS $end
 $var wire 1 ( _T $end
 $var wire 1 0 verCounter $end
 $var wire 1 7 nice2 $end
 $var wire 1 8 clkdiv $end
 $var wire 1 @ clock $end
 $var wire 1 M horCounter $end
 $var wire 1 N reset $end
  $scope module horCounter $end
   $var wire 10 ! cntReg $end
   $var wire 1 % reset $end
   $var wire 1 & _GEN_2 $end
   $var wire 1 + io_horSync $end
   $var wire 10 , io_horCnt $end
   $var wire 1 / io_dispTime $end
   $var wire 1 1 io_pxlCLK $end
   $var wire 1 2 _GEN_7 $end
   $var wire 1 6 _GEN_1 $end
   $var wire 1 ; _GEN_4 $end
   $var wire 1 < outputReg2 $end
   $var wire 1 = clock $end
   $var wire 10 A _GEN_3 $end
   $var wire 1 E io_enVCnt $end
   $var wire 10 F _GEN_6 $end
   $var wire 1 I _GEN_0 $end
   $var wire 11 J _T $end
   $var wire 1 Q outputReg1 $end
   $var wire 1 R _GEN_8 $end
  $upscope $end
  $scope module clkdiv $end
   $var wire 1 ) clock $end
   $var wire 1 * io_tick $end
   $var wire 3 9 _GEN_0 $end
   $var wire 4 > _T $end
   $var wire 1 ? reset $end
   $var wire 3 G cntReg $end
  $upscope $end
  $scope module verCounter $end
   $var wire 1 " outputReg2 $end
   $var wire 1 # io_dispTime $end
   $var wire 1 ' _GEN_2 $end
   $var wire 1 - reset $end
   $var wire 10 . io_verCnt $end
   $var wire 1 3 _GEN_4 $end
   $var wire 1 4 _GEN_7 $end
   $var wire 1 5 outputReg1 $end
   $var wire 1 : _GEN_1 $end
   $var wire 1 B io_verSync $end
   $var wire 1 C _GEN_0 $end
   $var wire 10 D _GEN_3 $end
   $var wire 11 H _T $end
   $var wire 1 K _GEN_6 $end
   $var wire 1 L io_enVCnt $end
   $var wire 1 O clock $end
   $var wire 10 P cntReg $end
   $var wire 10 S _GEN_5 $end
  $upscope $end
$upscope $end
$enddefinitions $end
$dumpvars
0%
0C
0;
0&
b000 G
b0000000000 ,
0<
0'
b0000 >
0R
0=
b0000000000 .
b0000000000 D
06
07
0"
b0000000000 F
0M
08
0#
0N
0O
0:
02
b0000000000 A
03
0Q
b00000000000 H
04
0I
05
b0000000000 P
0-
b00000000000 J
0K
b000 9
0L
0/
b0000000000 S
0E
00
b0000000000 !
0(
01
0)
0?
0*
0@
0+
0$
0B
$end
#0
1-
1N
1?
1%
b00000000001 J
b0000000001 D
b111 9
b00000000001 H
b0000000001 A
b1111 >
#1
13
1Q
1<
14
1R
15
1K
16
1/
b010 G
12
1+
1I
1B
1C
1&
1'
1=
1(
b0001 >
1)
1"
1@
1#
b001 9
1O
1:
1;
#6
0@
0O
0=
0)
#11
1@
1O
1=
1)
#16
0@
0O
0=
0)
#21
1@
1O
1=
1)
#26
0@
0O
0=
0)
#31
1@
1O
1=
1)
#36
0@
0O
0=
0)
#41
1@
1O
1=
1)
#46
0-
0N
0?
0%
0@
0O
0=
0)
#51
1@
b001 G
b000 9
1O
1=
b0000 >
1)
#56
0@
0O
0=
0)
#61
1@
b000 G
b111 9
1O
1=
b1111 >
1)
#66
0@
0O
0=
0)
#71
b0000000001 F
11
1@
b111 G
1*
b010 9
1O
1=
b1110 >
1)
#76
0@
0O
0=
0)
#81
b0000000001 !
01
1@
b00000000010 J
b010 G
0*
b001 9
1O
1=
b0000000010 A
b0000000001 ,
1)
b0001 >
#86
0@
0O
0=
0)
#91
1@
b001 G
b000 9
1O
1=
b0000 >
1)
#96
0@
0O
0=
0)
#101
1@
b000 G
b111 9
1O
1=
b1111 >
1)
#106
0@
0O
0=
0)
#111
b0000000010 F
11
1@
b111 G
1*
b010 9
1O
1=
b1110 >
1)
#116
0@
0O
0=
0)
#121
b0000000010 !
01
1@
b00000000011 J
b010 G
0*
b001 9
1O
1=
b0000000011 A
b0000000010 ,
1)
b0001 >
#126
0@
0O
0=
0)
#131
1@
b001 G
b000 9
1O
1=
b0000 >
1)
#136
0@
0O
0=
0)
#141
1@
b000 G
b111 9
1O
1=
b1111 >
1)
#146
0@
0O
0=
0)
#151
b0000000011 F
11
1@
b111 G
1*
b010 9
1O
1=
b1110 >
1)
#156
0@
0O
0=
0)
#161
b0000000011 !
01
1@
b00000000100 J
b010 G
0*
b001 9
1O
1=
b0000000100 A
b0000000011 ,
1)
b0001 >
#166
0@
0O
0=
0)
#171
1@
b001 G
b000 9
1O
1=
b0000 >
1)
#176
0@
0O
0=
0)
#181
1@
b000 G
b111 9
1O
1=
b1111 >
1)
#186
0@
0O
0=
0)
#191
b0000000100 F
11
1@
b111 G
1*
b010 9
1O
1=
b1110 >
1)
#196
0@
0O
0=
0)
#201
b0000000100 !
01
1@
b00000000101 J
b010 G
0*
b001 9
1O
1=
b0000000101 A
b0000000100 ,
1)
b0001 >
#206
0@
0O
0=
0)
#211
1@
b001 G
b000 9
1O
1=
b0000 >
1)
#216
0@
0O
0=
0)
#221
1@
b000 G
b111 9
1O
1=
b1111 >
1)
#226
0@
0O
0=
0)
#231
b0000000101 F
11
1@
b111 G
1*
b010 9
1O
1=
b1110 >
1)
#236
0@
0O
0=
0)
#241
b0000000101 !
01
1@
b00000000110 J
b010 G
0*
b001 9
1O
1=
b0000000110 A
b0000000101 ,
1)
b0001 >
#246
0@
0O
0=
0)
#251
1@
b001 G
b000 9
1O
1=
b0000 >
1)
#256
0@
0O
0=
0)
#261
1@
b000 G
b111 9
1O
1=
b1111 >
1)
#266
0@
0O
0=
0)
#271
b0000000110 F
11
1@
b111 G
1*
b010 9
1O
1=
b1110 >
1)
#276
0@
0O
0=
0)
#281
b0000000110 !
01
1@
b00000000111 J
b010 G
0*
b001 9
1O
1=
b0000000111 A
b0000000110 ,
1)
b0001 >
#286
0@
0O
0=
0)
#291
1@
b001 G
b000 9
1O
1=
b0000 >
1)
#296
0@
0O
0=
0)
#301
1@
b000 G
b111 9
1O
1=
b1111 >
1)
#306
0@
0O
0=
0)
#311
b0000000111 F
11
1@
b111 G
1*
b010 9
1O
1=
b1110 >
1)
#316
0@
0O
0=
0)
#321
b0000000111 !
01
1@
b00000001000 J
b010 G
0*
b001 9
1O
1=
b0000001000 A
b0000000111 ,
1)
b0001 >
#326
0@
0O
0=
0)
#331
1@
b001 G
b000 9
1O
1=
b0000 >
1)
#336
0@
0O
0=
0)
#341
1@
b000 G
b111 9
1O
1=
b1111 >
1)
#346
0@
0O
0=
0)
#351
b0000001000 F
11
1@
b111 G
1*
b010 9
1O
1=
b1110 >
1)
#356
0@
0O
0=
0)
#361
b0000001000 !
01
1@
b00000001001 J
b010 G
0*
b001 9
1O
1=
b0000001001 A
b0000001000 ,
1)
b0001 >
#366
0@
0O
0=
0)
#371
1@
b001 G
b000 9
1O
1=
b0000 >
1)
#376
0@
0O
0=
0)
#381
1@
b000 G
b111 9
1O
1=
b1111 >
1)
#386
0@
0O
0=
0)
#391
b0000001001 F
11
1@
b111 G
1*
b010 9
1O
1=
b1110 >
1)
#396
0@
0O
0=
0)
#401
b0000001001 !
01
1@
b00000001010 J
b010 G
0*
b001 9
1O
1=
b0000001010 A
b0000001001 ,
1)
b0001 >
#406
0@
0O
0=
0)
#411
1@
b001 G
b000 9
1O
1=
b0000 >
1)
#416
0@
0O
0=
0)
#421
1@
b000 G
b111 9
1O
1=
b1111 >
1)
#426
0@
0O
0=
0)
#431
b0000001010 F
11
1@
b111 G
1*
b010 9
1O
1=
b1110 >
1)
#436
0@
0O
0=
0)
#441
b0000001010 !
01
1@
b00000001011 J
b010 G
0*
b001 9
1O
1=
b0000001011 A
b0000001010 ,
1)
b0001 >
#446
0@
0O
0=
0)
#451
1@
b001 G
b000 9
1O
1=
b0000 >
1)
#456
0@
0O
0=
0)
#461
1@
b000 G
b111 9
1O
1=
b1111 >
1)
#466
0@
0O
0=
0)
#471
b0000001011 F
11
1@
b111 G
1*
b010 9
1O
1=
b1110 >
1)
#476
0@
0O
0=
0)
#481
b0000001011 !
01
1@
b00000001100 J
b010 G
0*
b001 9
1O
1=
b0000001100 A
b0000001011 ,
1)
b0001 >
#486
0@
0O
0=
0)
#491
1@
b001 G
b000 9
1O
1=
b0000 >
1)
#496
0@
0O
0=
0)
#501
1@
b000 G
b111 9
1O
1=
b1111 >
1)
#506
0@
0O
0=
0)
#511
b0000001100 F
11
1@
b111 G
1*
b010 9
1O
1=
b1110 >
1)
#516
0@
0O
0=
0)
#521
b0000001100 !
01
1@
b00000001101 J
b010 G
0*
b001 9
1O
1=
b0000001101 A
b0000001100 ,
1)
b0001 >
#526
0@
0O
0=
0)
#531
1@
b001 G
b000 9
1O
1=
b0000 >
1)
#536
0@
0O
0=
0)
#541
1@
b000 G
b111 9
1O
1=
b1111 >
1)
#546
0@
0O
0=
0)
#551
b0000001101 F
11
1@
b111 G
1*
b010 9
1O
1=
b1110 >
1)
#556
0@
0O
0=
0)
#561
b0000001101 !
01
1@
b00000001110 J
b010 G
0*
b001 9
1O
1=
b0000001110 A
b0000001101 ,
1)
b0001 >
#566
0@
0O
0=
0)
#571
1@
b001 G
b000 9
1O
1=
b0000 >
1)
#576
0@
0O
0=
0)
#581
1@
b000 G
b111 9
1O
1=
b1111 >
1)
#586
0@
0O
0=
0)
#591
b0000001110 F
11
1@
b111 G
1*
b010 9
1O
1=
b1110 >
1)
#596
0@
0O
0=
0)
#601
b0000001110 !
01
1@
b00000001111 J
b010 G
0*
b001 9
1O
1=
b0000001111 A
b0000001110 ,
1)
b0001 >
#606
0@
0O
0=
0)
#611
1@
b001 G
b000 9
1O
1=
b0000 >
1)
#616
0@
0O
0=
0)
#621
1@
b000 G
b111 9
1O
1=
b1111 >
1)
#626
0@
0O
0=
0)
#631
b0000001111 F
11
1@
b111 G
1*
b010 9
1O
1=
b1110 >
1)
#636
0@
0O
0=
0)
#641
b0000001111 !
01
1@
b00000010000 J
b010 G
0*
b001 9
1O
1=
b0000010000 A
b0000001111 ,
1)
b0001 >
#646
0@
0O
0=
0)
#651
1@
b001 G
b000 9
1O
1=
b0000 >
1)
#656
0@
0O
0=
0)
#661
1@
b000 G
b111 9
1O
1=
b1111 >
1)
#666
0@
0O
0=
0)
#671
b0000010000 F
11
1@
b111 G
1*
b010 9
1O
1=
b1110 >
1)
#676
0@
0O
0=
0)
#681
b0000010000 !
01
1@
b00000010001 J
b010 G
0*
b001 9
1O
1=
b0000010001 A
b0000010000 ,
1)
b0001 >
#686
0@
0O
0=
0)
#691
1@
b001 G
b000 9
1O
1=
b0000 >
1)
#696
0@
0O
0=
0)
#701
1@
b000 G
b111 9
1O
1=
b1111 >
1)
#706
0@
0O
0=
0)
#711
b0000010001 F
11
1@
b111 G
1*
b010 9
1O
1=
b1110 >
1)
#716
0@
0O
0=
0)
#721
b0000010001 !
01
1@
b00000010010 J
b010 G
0*
b001 9
1O
1=
b0000010010 A
b0000010001 ,
1)
b0001 >
#726
0@
0O
0=
0)
#731
1@
b001 G
b000 9
1O
1=
b0000 >
1)
#736
0@
0O
0=
0)
#741
1@
b000 G
b111 9
1O
1=
b1111 >
1)
#746
0@
0O
0=
0)
#751
b0000010010 F
11
1@
b111 G
1*
b010 9
1O
1=
b1110 >
1)
#756
0@
0O
0=
0)
#761
b0000010010 !
01
1@
b00000010011 J
b010 G
0*
b001 9
1O
1=
b0000010011 A
b0000010010 ,
1)
b0001 >
#766
0@
0O
0=
0)
#771
1@
b001 G
b000 9
1O
1=
b0000 >
1)
#776
0@
0O
0=
0)
#781
1@
b000 G
b111 9
1O
1=
b1111 >
1)
#786
0@
0O
0=
0)
#791
b0000010011 F
11
1@
b111 G
1*
b010 9
1O
1=
b1110 >
1)
#796
0@
0O
0=
0)
#801
b0000010011 !
01
1@
b00000010100 J
b010 G
0*
b001 9
1O
1=
b0000010100 A
b0000010011 ,
1)
b0001 >
#806
0@
0O
0=
0)
#811
1@
b001 G
b000 9
1O
1=
b0000 >
1)
#816
0@
0O
0=
0)
#821
1@
b000 G
b111 9
1O
1=
b1111 >
1)
#826
0@
0O
0=
0)
#831
b0000010100 F
11
1@
b111 G
1*
b010 9
1O
1=
b1110 >
1)
#836
0@
0O
0=
0)
#841
b0000010100 !
01
1@
b00000010101 J
b010 G
0*
b001 9
1O
1=
b0000010101 A
b0000010100 ,
1)
b0001 >
#846
0@
0O
0=
0)
#851
1@
b001 G
b000 9
1O
1=
b0000 >
1)
#856
0@
0O
0=
0)
#861
1@
b000 G
b111 9
1O
1=
b1111 >
1)
#866
0@
0O
0=
0)
#871
b0000010101 F
11
1@
b111 G
1*
b010 9
1O
1=
b1110 >
1)
#876
0@
0O
0=
0)
#881
b0000010101 !
01
1@
b00000010110 J
b010 G
0*
b001 9
1O
1=
b0000010110 A
b0000010101 ,
1)
b0001 >
#886
0@
0O
0=
0)
#891
1@
b001 G
b000 9
1O
1=
b0000 >
1)
#896
0@
0O
0=
0)
#901
1@
b000 G
b111 9
1O
1=
b1111 >
1)
#906
0@
0O
0=
0)
#911
b0000010110 F
11
1@
b111 G
1*
b010 9
1O
1=
b1110 >
1)
#916
0@
0O
0=
0)
#921
b0000010110 !
01
1@
b00000010111 J
b010 G
0*
b001 9
1O
1=
b0000010111 A
b0000010110 ,
1)
b0001 >
#926
0@
0O
0=
0)
#931
1@
b001 G
b000 9
1O
1=
b0000 >
1)
#936
0@
0O
0=
0)
#941
1@
b000 G
b111 9
1O
1=
b1111 >
1)
#946
0@
0O
0=
0)
#951
b0000010111 F
11
1@
b111 G
1*
b010 9
1O
1=
b1110 >
1)
#956
0@
0O
0=
0)
#961
b0000010111 !
01
1@
b00000011000 J
b010 G
0*
b001 9
1O
1=
b0000011000 A
b0000010111 ,
1)
b0001 >
#966
0@
0O
0=
0)
#971
1@
b001 G
b000 9
1O
1=
b0000 >
1)
#976
0@
0O
0=
0)
#981
1@
b000 G
b111 9
1O
1=
b1111 >
1)
#986
0@
0O
0=
0)
#991
b0000011000 F
11
1@
b111 G
1*
b010 9
1O
1=
b1110 >
1)
#996
0@
0O
0=
0)
#1001
b0000011000 !
01
1@
b00000011001 J
b010 G
0*
b001 9
1O
1=
b0000011001 A
b0000011000 ,
1)
b0001 >
#1006
0@
0O
0=
0)
#1011
1@
b001 G
b000 9
1O
1=
b0000 >
1)
#1016
0@
0O
0=
0)
#1021
1@
b000 G
b111 9
1O
1=
b1111 >
1)
#1026
0@
0O
0=
0)
#1031
b0000011001 F
11
1@
b111 G
1*
b010 9
1O
1=
b1110 >
1)
#1036
0@
0O
0=
0)
#1041
b0000011001 !
01
1@
b00000011010 J
b010 G
0*
b001 9
1O
1=
b0000011010 A
b0000011001 ,
1)
b0001 >
#1046
0@
0O
0=
0)
#1051
1@
b001 G
b000 9
1O
1=
b0000 >
1)
#1056
0@
0O
0=
0)
#1061
1@
b000 G
b111 9
1O
1=
b1111 >
1)
#1066
0@
0O
0=
0)
#1071
b0000011010 F
11
1@
b111 G
1*
b010 9
1O
1=
b1110 >
1)
#1076
0@
0O
0=
0)
#1081
b0000011010 !
01
1@
b00000011011 J
b010 G
0*
b001 9
1O
1=
b0000011011 A
b0000011010 ,
1)
b0001 >
#1086
0@
0O
0=
0)
#1091
1@
b001 G
b000 9
1O
1=
b0000 >
1)
#1096
0@
0O
0=
0)
#1101
1@
b000 G
b111 9
1O
1=
b1111 >
1)
#1106
0@
0O
0=
0)
#1111
b0000011011 F
11
1@
b111 G
1*
b010 9
1O
1=
b1110 >
1)
#1116
0@
0O
0=
0)
#1121
b0000011011 !
01
1@
b00000011100 J
b010 G
0*
b001 9
1O
1=
b0000011100 A
b0000011011 ,
1)
b0001 >
#1126
0@
0O
0=
0)
#1131
1@
b001 G
b000 9
1O
1=
b0000 >
1)
#1136
0@
0O
0=
0)
#1141
1@
b000 G
b111 9
1O
1=
b1111 >
1)
#1146
0@
0O
0=
0)
#1151
b0000011100 F
11
1@
b111 G
1*
b010 9
1O
1=
b1110 >
1)
#1156
0@
0O
0=
0)
#1161
b0000011100 !
01
1@
b00000011101 J
b010 G
0*
b001 9
1O
1=
b0000011101 A
b0000011100 ,
1)
b0001 >
#1166
0@
0O
0=
0)
#1171
1@
b001 G
b000 9
1O
1=
b0000 >
1)
#1176
0@
0O
0=
0)
#1181
1@
b000 G
b111 9
1O
1=
b1111 >
1)
#1186
0@
0O
0=
0)
#1191
b0000011101 F
11
1@
b111 G
1*
b010 9
1O
1=
b1110 >
1)
#1196
0@
0O
0=
0)
#1201
b0000011101 !
01
1@
b00000011110 J
b010 G
0*
b001 9
1O
1=
b0000011110 A
b0000011101 ,
1)
b0001 >
#1206
0@
0O
0=
0)
#1211
1@
b001 G
b000 9
1O
1=
b0000 >
1)
#1216
0@
0O
0=
0)
#1221
1@
b000 G
b111 9
1O
1=
b1111 >
1)
#1226
0@
0O
0=
0)
#1231
b0000011110 F
11
1@
b111 G
1*
b010 9
1O
1=
b1110 >
1)
#1236
0@
0O
0=
0)
#1241
b0000011110 !
01
1@
b00000011111 J
b010 G
0*
b001 9
1O
1=
b0000011111 A
b0000011110 ,
1)
b0001 >
#1246
0@
0O
0=
0)
#1251
1@
b001 G
b000 9
1O
1=
b0000 >
1)
#1256
0@
0O
0=
0)
#1261
1@
b000 G
b111 9
1O
1=
b1111 >
1)
#1266
0@
0O
0=
0)
#1271
b0000011111 F
11
1@
b111 G
1*
b010 9
1O
1=
b1110 >
1)
#1276
0@
0O
0=
0)
#1281
b0000011111 !
01
1@
b00000100000 J
b010 G
0*
b001 9
1O
1=
b0000100000 A
b0000011111 ,
1)
b0001 >
#1286
0@
0O
0=
0)
#1291
1@
b001 G
b000 9
1O
1=
b0000 >
1)
#1296
0@
0O
0=
0)
#1301
1@
b000 G
b111 9
1O
1=
b1111 >
1)
#1306
0@
0O
0=
0)
#1311
b0000100000 F
11
1@
b111 G
1*
b010 9
1O
1=
b1110 >
1)
#1316
0@
0O
0=
0)
#1321
b0000100000 !
01
1@
b00000100001 J
b010 G
0*
b001 9
1O
1=
b0000100001 A
b0000100000 ,
1)
b0001 >
#1326
0@
0O
0=
0)
#1331
1@
b001 G
b000 9
1O
1=
b0000 >
1)
#1336
0@
0O
0=
0)
#1341
1@
b000 G
b111 9
1O
1=
b1111 >
1)
#1346
0@
0O
0=
0)
#1351
b0000100001 F
11
1@
b111 G
1*
b010 9
1O
1=
b1110 >
1)
#1356
0@
0O
0=
0)
#1361
b0000100001 !
01
1@
b00000100010 J
b010 G
0*
b001 9
1O
1=
b0000100010 A
b0000100001 ,
1)
b0001 >
#1366
0@
0O
0=
0)
#1371
1@
b001 G
b000 9
1O
1=
b0000 >
1)
#1376
0@
0O
0=
0)
#1381
1@
b000 G
b111 9
1O
1=
b1111 >
1)
#1386
0@
0O
0=
0)
#1391
b0000100010 F
11
1@
b111 G
1*
b010 9
1O
1=
b1110 >
1)
#1396
0@
0O
0=
0)
#1401
b0000100010 !
01
1@
b00000100011 J
b010 G
0*
b001 9
1O
1=
b0000100011 A
b0000100010 ,
1)
b0001 >
#1406
0@
0O
0=
0)
#1411
1@
b001 G
b000 9
1O
1=
b0000 >
1)
#1416
0@
0O
0=
0)
#1421
1@
b000 G
b111 9
1O
1=
b1111 >
1)
#1426
0@
0O
0=
0)
#1431
b0000100011 F
11
1@
b111 G
1*
b010 9
1O
1=
b1110 >
1)
#1436
0@
0O
0=
0)
#1441
b0000100011 !
01
1@
b00000100100 J
b010 G
0*
b001 9
1O
1=
b0000100100 A
b0000100011 ,
1)
b0001 >
#1446
0@
0O
0=
0)
#1451
1@
b001 G
b000 9
1O
1=
b0000 >
1)
#1456
0@
0O
0=
0)
#1461
1@
b000 G
b111 9
1O
1=
b1111 >
1)
#1466
0@
0O
0=
0)
#1471
b0000100100 F
11
1@
b111 G
1*
b010 9
1O
1=
b1110 >
1)
#1476
0@
0O
0=
0)
#1481
b0000100100 !
01
1@
b00000100101 J
b010 G
0*
b001 9
1O
1=
b0000100101 A
b0000100100 ,
1)
b0001 >
#1486
0@
0O
0=
0)
#1491
1@
b001 G
b000 9
1O
1=
b0000 >
1)
#1496
0@
0O
0=
0)
#1501
1@
b000 G
b111 9
1O
1=
b1111 >
1)
#1506
0@
0O
0=
0)
#1511
b0000100101 F
11
1@
b111 G
1*
b010 9
1O
1=
b1110 >
1)
#1516
0@
0O
0=
0)
#1521
b0000100101 !
01
1@
b00000100110 J
b010 G
0*
b001 9
1O
1=
b0000100110 A
b0000100101 ,
1)
b0001 >
#1526
0@
0O
0=
0)
#1531
1@
b001 G
b000 9
1O
1=
b0000 >
1)
#1536
0@
0O
0=
0)
#1541
1@
b000 G
b111 9
1O
1=
b1111 >
1)
#1546
0@
0O
0=
0)
#1551
b0000100110 F
11
1@
b111 G
1*
b010 9
1O
1=
b1110 >
1)
#1556
0@
0O
0=
0)
#1561
b0000100110 !
01
1@
b00000100111 J
b010 G
0*
b001 9
1O
1=
b0000100111 A
b0000100110 ,
1)
b0001 >
#1566
0@
0O
0=
0)
#1571
1@
b001 G
b000 9
1O
1=
b0000 >
1)
#1576
0@
0O
0=
0)
#1581
1@
b000 G
b111 9
1O
1=
b1111 >
1)
#1586
0@
0O
0=
0)
#1591
b0000100111 F
11
1@
b111 G
1*
b010 9
1O
1=
b1110 >
1)
#1596
0@
0O
0=
0)
#1601
b0000100111 !
01
1@
b00000101000 J
b010 G
0*
b001 9
1O
1=
b0000101000 A
b0000100111 ,
1)
b0001 >
#1606
0@
0O
0=
0)
#1611
1@
b001 G
b000 9
1O
1=
b0000 >
1)
#1616
0@
0O
0=
0)
#1621
1@
b000 G
b111 9
1O
1=
b1111 >
1)
#1626
0@
0O
0=
0)
#1631
b0000101000 F
11
1@
b111 G
1*
b010 9
1O
1=
b1110 >
1)
#1636
0@
0O
0=
0)
#1641
b0000101000 !
01
1@
b00000101001 J
b010 G
0*
b001 9
1O
1=
b0000101001 A
b0000101000 ,
1)
b0001 >
#1646
0@
0O
0=
0)
#1651
1@
b001 G
b000 9
1O
1=
b0000 >
1)
#1656
0@
0O
0=
0)
#1661
1@
b000 G
b111 9
1O
1=
b1111 >
1)
#1666
0@
0O
0=
0)
#1671
b0000101001 F
11
1@
b111 G
1*
b010 9
1O
1=
b1110 >
1)
#1676
0@
0O
0=
0)
#1681
b0000101001 !
01
1@
b00000101010 J
b010 G
0*
b001 9
1O
1=
b0000101010 A
b0000101001 ,
1)
b0001 >
#1686
0@
0O
0=
0)
#1691
1@
b001 G
b000 9
1O
1=
b0000 >
1)
#1696
0@
0O
0=
0)
#1701
1@
b000 G
b111 9
1O
1=
b1111 >
1)
#1706
0@
0O
0=
0)
#1711
b0000101010 F
11
1@
b111 G
1*
b010 9
1O
1=
b1110 >
1)
#1716
0@
0O
0=
0)
#1721
b0000101010 !
01
1@
b00000101011 J
b010 G
0*
b001 9
1O
1=
b0000101011 A
b0000101010 ,
1)
b0001 >
#1726
0@
0O
0=
0)
#1731
1@
b001 G
b000 9
1O
1=
b0000 >
1)
#1736
0@
0O
0=
0)
#1741
1@
b000 G
b111 9
1O
1=
b1111 >
1)
#1746
0@
0O
0=
0)
#1751
b0000101011 F
11
1@
b111 G
1*
b010 9
1O
1=
b1110 >
1)
#1756
0@
0O
0=
0)
#1761
b0000101011 !
01
1@
b00000101100 J
b010 G
0*
b001 9
1O
1=
b0000101100 A
b0000101011 ,
1)
b0001 >
#1766
0@
0O
0=
0)
#1771
1@
b001 G
b000 9
1O
1=
b0000 >
1)
#1776
0@
0O
0=
0)
#1781
1@
b000 G
b111 9
1O
1=
b1111 >
1)
#1786
0@
0O
0=
0)
#1791
b0000101100 F
11
1@
b111 G
1*
b010 9
1O
1=
b1110 >
1)
#1796
0@
0O
0=
0)
#1801
b0000101100 !
01
1@
b00000101101 J
b010 G
0*
b001 9
1O
1=
b0000101101 A
b0000101100 ,
1)
b0001 >
#1806
0@
0O
0=
0)
#1811
1@
b001 G
b000 9
1O
1=
b0000 >
1)
#1816
0@
0O
0=
0)
#1821
1@
b000 G
b111 9
1O
1=
b1111 >
1)
#1826
0@
0O
0=
0)
#1831
b0000101101 F
11
1@
b111 G
1*
b010 9
1O
1=
b1110 >
1)
#1836
0@
0O
0=
0)
#1841
b0000101101 !
01
1@
b00000101110 J
b010 G
0*
b001 9
1O
1=
b0000101110 A
b0000101101 ,
1)
b0001 >
#1846
0@
0O
0=
0)
#1851
1@
b001 G
b000 9
1O
1=
b0000 >
1)
#1856
0@
0O
0=
0)
#1861
1@
b000 G
b111 9
1O
1=
b1111 >
1)
#1866
0@
0O
0=
0)
#1871
b0000101110 F
11
1@
b111 G
1*
b010 9
1O
1=
b1110 >
1)
#1876
0@
0O
0=
0)
#1881
b0000101110 !
01
1@
b00000101111 J
b010 G
0*
b001 9
1O
1=
b0000101111 A
b0000101110 ,
1)
b0001 >
#1886
0@
0O
0=
0)
#1891
1@
b001 G
b000 9
1O
1=
b0000 >
1)
#1896
0@
0O
0=
0)
#1901
1@
b000 G
b111 9
1O
1=
b1111 >
1)
#1906
0@
0O
0=
0)
#1911
b0000101111 F
11
1@
b111 G
1*
b010 9
1O
1=
b1110 >
1)
#1916
0@
0O
0=
0)
#1921
b0000101111 !
01
1@
b00000110000 J
b010 G
0*
b001 9
1O
1=
b0000110000 A
b0000101111 ,
1)
b0001 >
#1926
0@
0O
0=
0)
#1931
1@
b001 G
b000 9
1O
1=
b0000 >
1)
#1936
0@
0O
0=
0)
#1941
1@
b000 G
b111 9
1O
1=
b1111 >
1)
#1946
0@
0O
0=
0)
#1951
b0000110000 F
11
1@
b111 G
1*
b010 9
1O
1=
b1110 >
1)
#1956
0@
0O
0=
0)
#1961
b0000110000 !
01
1@
b00000110001 J
b010 G
0*
b001 9
1O
1=
b0000110001 A
b0000110000 ,
1)
b0001 >
#1966
0@
0O
0=
0)
#1971
1@
b001 G
b000 9
1O
1=
b0000 >
1)
#1976
0@
0O
0=
0)
#1981
1@
b000 G
b111 9
1O
1=
b1111 >
1)
#1986
0@
0O
0=
0)
#1991
b0000110001 F
11
1@
b111 G
1*
b010 9
1O
1=
b1110 >
1)
#1996
0@
0O
0=
0)
#2001
b0000110001 !
01
1@
b00000110010 J
b010 G
0*
b001 9
1O
1=
b0000110010 A
b0000110001 ,
1)
b0001 >
#2006
0@
0O
0=
0)
#2011
1@
b001 G
b000 9
1O
1=
b0000 >
1)
#2016
0@
0O
0=
0)
#2021
1@
b000 G
b111 9
1O
1=
b1111 >
1)
#2026
0@
0O
0=
0)
#2031
b0000110010 F
11
1@
b111 G
1*
b010 9
1O
1=
b1110 >
1)
#2036
0@
0O
0=
0)
#2041
b0000110010 !
01
1@
b00000110011 J
b010 G
0*
b001 9
1O
1=
b0000110011 A
b0000110010 ,
1)
b0001 >
#2046
0@
0O
0=
0)
#2051
1@
b001 G
b000 9
1O
1=
b0000 >
1)
#2056
0@
0O
0=
0)
#2061
1@
b000 G
b111 9
1O
1=
b1111 >
1)
#2066
0@
0O
0=
0)
#2071
b0000110011 F
11
1@
b111 G
1*
b010 9
1O
1=
b1110 >
1)
#2076
0@
0O
0=
0)
#2081
b0000110011 !
01
1@
b00000110100 J
b010 G
0*
b001 9
1O
1=
b0000110100 A
b0000110011 ,
1)
b0001 >
#2086
0@
0O
0=
0)
#2091
1@
b001 G
b000 9
1O
1=
b0000 >
1)
#2096
0@
0O
0=
0)
#2101
1@
b000 G
b111 9
1O
1=
b1111 >
1)
#2106
0@
0O
0=
0)
#2111
b0000110100 F
11
1@
b111 G
1*
b010 9
1O
1=
b1110 >
1)
#2116
0@
0O
0=
0)
#2121
b0000110100 !
01
1@
b00000110101 J
b010 G
0*
b001 9
1O
1=
b0000110101 A
b0000110100 ,
1)
b0001 >
#2126
0@
0O
0=
0)
#2131
1@
b001 G
b000 9
1O
1=
b0000 >
1)
#2136
0@
0O
0=
0)
#2141
1@
b000 G
b111 9
1O
1=
b1111 >
1)
#2146
0@
0O
0=
0)
#2151
b0000110101 F
11
1@
b111 G
1*
b010 9
1O
1=
b1110 >
1)
#2156
0@
0O
0=
0)
#2161
b0000110101 !
01
1@
b00000110110 J
b010 G
0*
b001 9
1O
1=
b0000110110 A
b0000110101 ,
1)
b0001 >
#2166
0@
0O
0=
0)
#2171
1@
b001 G
b000 9
1O
1=
b0000 >
1)
#2176
0@
0O
0=
0)
#2181
1@
b000 G
b111 9
1O
1=
b1111 >
1)
#2186
0@
0O
0=
0)
#2191
b0000110110 F
11
1@
b111 G
1*
b010 9
1O
1=
b1110 >
1)
#2196
0@
0O
0=
0)
#2201
b0000110110 !
01
1@
b00000110111 J
b010 G
0*
b001 9
1O
1=
b0000110111 A
b0000110110 ,
1)
b0001 >
#2206
0@
0O
0=
0)
#2211
1@
b001 G
b000 9
1O
1=
b0000 >
1)
#2216
0@
0O
0=
0)
#2221
1@
b000 G
b111 9
1O
1=
b1111 >
1)
#2226
0@
0O
0=
0)
#2231
b0000110111 F
11
1@
b111 G
1*
b010 9
1O
1=
b1110 >
1)
#2236
0@
0O
0=
0)
#2241
b0000110111 !
01
1@
b00000111000 J
b010 G
0*
b001 9
1O
1=
b0000111000 A
b0000110111 ,
1)
b0001 >
#2246
0@
0O
0=
0)
#2251
1@
b001 G
b000 9
1O
1=
b0000 >
1)
#2256
0@
0O
0=
0)
#2261
1@
b000 G
b111 9
1O
1=
b1111 >
1)
#2266
0@
0O
0=
0)
#2271
b0000111000 F
11
1@
b111 G
1*
b010 9
1O
1=
b1110 >
1)
#2276
0@
0O
0=
0)
#2281
b0000111000 !
01
1@
b00000111001 J
b010 G
0*
b001 9
1O
1=
b0000111001 A
b0000111000 ,
1)
b0001 >
#2286
0@
0O
0=
0)
